[2018-12-14 14:11:44:842] - info: ----- Start onProfile_Update -----
[2018-12-14 14:11:44:842] - info: ----- incomming parameters Headers [{"host":"127.0.0.1:8080","connection":"keep-alive","accept":"application/json, text/plain, */*","origin":"http://localhost:4200","x_access_token":"5869330f4b11f17233b8fce4214eb64b13bb1840ce649e579e53515f87796bbe","authorization":"Bearer 5869330f4b11f17233b8fce4214eb64b13bb1840ce649e579e53515f87796bbe","user-agent":"Mozilla/5.0 (Macintosh; Intel Mac OS X 10_12_6) AppleWebKit/537.36 (KHTML, like Gecko) Chrome/71.0.3578.98 Safari/537.36","referer":"http://localhost:4200/store-product/export-file","accept-encoding":"gzip, deflate, br","accept-language":"en-US,en;q=0.9"}] -----
[2018-12-14 14:11:44:842] - info: ----- incomming parameters Body [{"server_by":"5bd6db911db5528939d673d3"}] -----
[2018-12-14 14:11:44:842] - info: ----- request ip [::ffff:127.0.0.1] -----
[2018-12-14 14:11:44:842] - info: ----- ResponseMessage[{"api_number":0,"code":20000,"message":{"en":"Success","th":"ทำรายการเรียบร้อย"},"__v":0,"data":{"_id":"5bd6db911db5528939d673d3","username":"saksith","enable":true,"userinfo":{"birthday":"2018-11-15T17:00:00.000Z","msisdn":"031232132","email":"saksithgmail.com","address":{"zipcode":"","address":"rrr"},"google_id":"atchara_google","facebook_id":"d","lineid":"l","card_id":"c","image_profile":"http://127.0.0.1:8080/images/profiles/1542256274471.jpg","lastname":"rittanasatheiyn","firstname":"Saksith"},"state":1,"status":1,"token_expired":1547288042635,"x_access_token":"5869330f4b11f17233b8fce4214eb64b13bb1840ce649e579e53515f87796bbe","usertype_id":[],"__v":0}}] ResponseTime[37] -----

