[2018-12-19 15:05:41:488] - info: ----- Start onQuery_Store_Product -----
[2018-12-19 15:05:41:488] - info: ----- incomming parameters Headers [{"host":"127.0.0.1:8080","connection":"keep-alive","accept":"application/json, text/plain, */*","origin":"http://localhost:4200","x_access_token":"5869330f4b11f17233b8fce4214eb64b13bb1840ce649e579e53515f87796bbe","authorization":"Bearer 5869330f4b11f17233b8fce4214eb64b13bb1840ce649e579e53515f87796bbe","user-agent":"Mozilla/5.0 (Macintosh; Intel Mac OS X 10_12_6) AppleWebKit/537.36 (KHTML, like Gecko) Chrome/71.0.3578.98 Safari/537.36","referer":"http://localhost:4200/store-product/store-product-by-company-warehouse-partner/5c0886aa354c4009a11d04c0/5c0f7bf2047a360f78482f44/5c0f7b7c047a360f78482f42/Partner%201","accept-encoding":"gzip, deflate, br","accept-language":"en-US,en;q=0.9"}] -----
[2018-12-19 15:05:41:488] - info: ----- incomming parameters Body [{"server_by":"5bd6db911db5528939d673d3"}] -----
[2018-12-19 15:05:41:488] - info: ----- request ip [::ffff:127.0.0.1] -----
[2018-12-19 15:05:41:488] - info: ----- ResponseMessage[{"api_number":0,"code":20000,"message":{"en":"Success","th":"ทำรายการเรียบร้อย"},"__v":0,"data":[{"company":{"_id":"5c0886aa354c4009a11d04c0","image":null,"description":"บ. ไทยจีพีเอส","title":"Thai GPS"},"warehouse":{"_id":"5c0f7bf2047a360f78482f44","enable":true,"description":"","title":"Warehouse 1"},"serial_product":{"_id":"5c0f7c27047a360f78482f46","type":{"_id":"5c05e18caca7290a33d82517","enable":true,"description":"มีส่วนผสมของแอลกอฮอล์","title":"แอลกอฮอล์"},"enable":true,"image":null,"description":"","title":"เบียร์","serial_product":"1234"},"charged_warehouse":{"export_value":10,"daily_freight":10,"import_value":10},"__v":0,"total":2,"remain":0},{"company":{"_id":"5c0886aa354c4009a11d04c0","image":null,"description":"บ. ไทยจีพีเอส","title":"Thai GPS"},"warehouse":{"_id":"5c0f7bf2047a360f78482f44","enable":true,"description":"","title":"Warehouse 1"},"serial_product":{"_id":"5c0f7c6e047a360f78482f49","type":{"_id":"5bf5074050edaa20be9f5514","enable":true,"description":"Juice","title":"เครื่องดื่ม"},"enable":true,"image":null,"description":"","title":"ไมโล","serial_product":"5678"},"charged_warehouse":{"export_value":10,"daily_freight":10,"import_value":10},"__v":0,"total":1,"remain":1},{"company":{"_id":"5c0886aa354c4009a11d04c0","image":null,"description":"บ. ไทยจีพีเอส","title":"Thai GPS"},"warehouse":{"_id":"5c0f7bf2047a360f78482f44","enable":true,"description":"","title":"Warehouse 1"},"serial_product":{"_id":"5c0f7c6e047a360f78482f49","type":{"_id":"5bf5074050edaa20be9f5514","enable":true,"description":"Juice","title":"เครื่องดื่ม"},"enable":true,"image":null,"description":"","title":"ไมโล","serial_product":"5678"},"charged_warehouse":{"export_value":10,"daily_freight":10,"import_value":10},"__v":0,"total":1,"remain":0}]}] ResponseTime[135] -----

[2018-12-19 15:05:41:674] - info: ----- Start onProfile_Update -----
[2018-12-19 15:05:41:674] - info: ----- incomming parameters Headers [{"host":"127.0.0.1:8080","connection":"keep-alive","accept":"application/json, text/plain, */*","origin":"http://localhost:4200","x_access_token":"5869330f4b11f17233b8fce4214eb64b13bb1840ce649e579e53515f87796bbe","authorization":"Bearer 5869330f4b11f17233b8fce4214eb64b13bb1840ce649e579e53515f87796bbe","user-agent":"Mozilla/5.0 (Macintosh; Intel Mac OS X 10_12_6) AppleWebKit/537.36 (KHTML, like Gecko) Chrome/71.0.3578.98 Safari/537.36","referer":"http://localhost:4200/store-product/store-product-by-company-warehouse-partner/5c0886aa354c4009a11d04c0/5c0f7bf2047a360f78482f44/5c0f7b7c047a360f78482f42/Partner%201","accept-encoding":"gzip, deflate, br","accept-language":"en-US,en;q=0.9"}] -----
[2018-12-19 15:05:41:674] - info: ----- incomming parameters Body [{"server_by":"5bd6db911db5528939d673d3"}] -----
[2018-12-19 15:05:41:674] - info: ----- request ip [::ffff:127.0.0.1] -----
[2018-12-19 15:05:41:674] - info: ----- ResponseMessage[{"api_number":0,"code":20000,"message":{"en":"Success","th":"ทำรายการเรียบร้อย"},"__v":0,"data":{"_id":"5bd6db911db5528939d673d3","username":"saksith","enable":true,"userinfo":{"birthday":"2018-11-15T17:00:00.000Z","msisdn":"031232132","email":"saksithgmail.com","address":{"zipcode":"","address":"rrr"},"google_id":"atchara_google","facebook_id":"d","lineid":"l","card_id":"c","image_profile":"http://127.0.0.1:8080/images/profiles/1542256274471.jpg","lastname":"rittanasatheiyn","firstname":"Saksith"},"state":1,"status":1,"token_expired":1547288042635,"x_access_token":"5869330f4b11f17233b8fce4214eb64b13bb1840ce649e579e53515f87796bbe","usertype_id":[],"__v":0}}] ResponseTime[54] -----

[2018-12-19 15:05:48:946] - info: ----- Start onPartners -----
[2018-12-19 15:05:48:946] - info: ----- incomming parameters Headers [{"host":"127.0.0.1:8080","connection":"keep-alive","accept":"application/json, text/plain, */*","origin":"http://localhost:4200","x_access_token":"5869330f4b11f17233b8fce4214eb64b13bb1840ce649e579e53515f87796bbe","authorization":"Bearer 5869330f4b11f17233b8fce4214eb64b13bb1840ce649e579e53515f87796bbe","user-agent":"Mozilla/5.0 (Macintosh; Intel Mac OS X 10_12_6) AppleWebKit/537.36 (KHTML, like Gecko) Chrome/71.0.3578.98 Safari/537.36","referer":"http://localhost:4200/store-product/store-product-by-company-warehouse-partner/5c0886aa354c4009a11d04c0/5c0f7bf2047a360f78482f44/5c0f7b7c047a360f78482f42/Partner%201","accept-encoding":"gzip, deflate, br","accept-language":"en-US,en;q=0.9"}] -----
[2018-12-19 15:05:48:946] - info: ----- incomming parameters Body [{"server_by":"5bd6db911db5528939d673d3"}] -----
[2018-12-19 15:05:48:946] - info: ----- request ip [::ffff:127.0.0.1] -----
[2018-12-19 15:05:48:946] - info: ----- ResponseMessage[{"api_number":0,"code":20000,"message":{"en":"Success","th":"ทำรายการเรียบร้อย"},"__v":0,"data":[{"_id":"5c0f7b7c047a360f78482f42","company":"5c0886aa354c4009a11d04c0","update":[],"create":{"by":"5bd6db911db5528939d673d3","date":"2018-12-11T08:55:24.629Z"},"users":[{"by":"5bd6db911db5528939d673d3","_id":"5c0f7b7c047a360f78482f43"}],"enable":true,"invoice":[],"contact":{"long":null,"lat":null,"address":"","email":"","msisdn":"","name":"Partner one"},"title":"Partner 1","__v":0}]}] ResponseTime[43] -----

[2018-12-19 15:05:49:027] - info: ----- Start onQuery_Warehouses -----
[2018-12-19 15:05:49:027] - info: ----- incomming parameters Headers [{"host":"127.0.0.1:8080","connection":"keep-alive","accept":"application/json, text/plain, */*","origin":"http://localhost:4200","x_access_token":"5869330f4b11f17233b8fce4214eb64b13bb1840ce649e579e53515f87796bbe","authorization":"Bearer 5869330f4b11f17233b8fce4214eb64b13bb1840ce649e579e53515f87796bbe","user-agent":"Mozilla/5.0 (Macintosh; Intel Mac OS X 10_12_6) AppleWebKit/537.36 (KHTML, like Gecko) Chrome/71.0.3578.98 Safari/537.36","referer":"http://localhost:4200/store-product/store-product-by-company-warehouse-partner/5c0886aa354c4009a11d04c0/5c0f7bf2047a360f78482f44/5c0f7b7c047a360f78482f42/Partner%201","accept-encoding":"gzip, deflate, br","accept-language":"en-US,en;q=0.9"}] -----
[2018-12-19 15:05:49:027] - info: ----- incomming parameters Body [{"server_by":"5bd6db911db5528939d673d3"}] -----
[2018-12-19 15:05:49:027] - info: ----- request ip [::ffff:127.0.0.1] -----
[2018-12-19 15:05:49:027] - info: ----- ResponseMessage[{"api_number":0,"code":20000,"message":{"en":"Success","th":"ทำรายการเรียบร้อย"},"__v":0,"data":[{"_id":"5c0f7bf2047a360f78482f44","update":[],"create":{"by":"5bd6db911db5528939d673d3","date":"2018-12-11T08:57:22.086Z"},"enable":true,"support":[{"company":"5c0886aa354c4009a11d04c0","_id":"5c0f7bf2047a360f78482f45","charged_warehouse":{"export_value":10,"daily_freight":10,"import_value":10}}],"partners":["5c0f7b7c047a360f78482f42"],"description":"","title":"Warehouse 1","__v":0},{"_id":"5c0f8083047a360f78482f4c","update":[{"by":"5bd6db911db5528939d673d3","_id":"5c19bb552e23b10a6c156627","date":"2018-12-19T03:30:29.191Z"}],"create":{"by":"5bd6db911db5528939d673d3","date":"2018-12-11T09:16:51.163Z"},"enable":true,"support":[],"partners":["5c0f7b7c047a360f78482f42"],"description":"","title":"Warehouse 2","__v":0},{"_id":"5c1771048427b00a96c0c060","update":[{"by":"5bd6db911db5528939d673d3","_id":"5c19b5642e23b10a6c156625","date":"2018-12-19T03:05:08.054Z"},{"by":"5bd6db911db5528939d673d3","_id":"5c19b5882e23b10a6c156626","date":"2018-12-19T03:05:44.880Z"}],"create":{"by":"5bd6db911db5528939d673d3","date":"2018-12-17T09:48:52.782Z"},"enable":true,"support":[],"partners":["5c0f7b7c047a360f78482f42"],"description":"","title":"warehouse 3","__v":0},{"_id":"5c19cc362e23b10a6c156628","update":[],"create":{"by":"5bd6db911db5528939d673d3","date":"2018-12-19T04:42:30.672Z"},"enable":true,"support":[{"company":"5c0886aa354c4009a11d04c0","_id":"5c19cc362e23b10a6c156629","charged_warehouse":{"export_value":30,"daily_freight":30,"import_value":20}}],"partners":["5c0f7b7c047a360f78482f42"],"description":"","title":"Warehouse G","__v":0}]}] ResponseTime[42] -----

[2018-12-19 15:11:29:857] - info: ----- Start onProfile_Update -----
[2018-12-19 15:11:29:857] - info: ----- incomming parameters Headers [{"host":"127.0.0.1:8080","connection":"keep-alive","accept":"application/json, text/plain, */*","origin":"http://localhost:4200","x_access_token":"5869330f4b11f17233b8fce4214eb64b13bb1840ce649e579e53515f87796bbe","authorization":"Bearer 5869330f4b11f17233b8fce4214eb64b13bb1840ce649e579e53515f87796bbe","user-agent":"Mozilla/5.0 (Macintosh; Intel Mac OS X 10_12_6) AppleWebKit/537.36 (KHTML, like Gecko) Chrome/71.0.3578.98 Safari/537.36","referer":"http://localhost:4200/store-product/store-product-by-company-warehouse-partner/5c0886aa354c4009a11d04c0/5c0f7bf2047a360f78482f44/5c0f7b7c047a360f78482f42/Partner%201","accept-encoding":"gzip, deflate, br","accept-language":"en-US,en;q=0.9"}] -----
[2018-12-19 15:11:29:857] - info: ----- incomming parameters Body [{"server_by":"5bd6db911db5528939d673d3"}] -----
[2018-12-19 15:11:29:857] - info: ----- request ip [::ffff:127.0.0.1] -----
[2018-12-19 15:11:29:857] - info: ----- ResponseMessage[{"api_number":0,"code":20000,"message":{"en":"Success","th":"ทำรายการเรียบร้อย"},"__v":0,"data":{"_id":"5bd6db911db5528939d673d3","username":"saksith","enable":true,"userinfo":{"birthday":"2018-11-15T17:00:00.000Z","msisdn":"031232132","email":"saksithgmail.com","address":{"zipcode":"","address":"rrr"},"google_id":"atchara_google","facebook_id":"d","lineid":"l","card_id":"c","image_profile":"http://127.0.0.1:8080/images/profiles/1542256274471.jpg","lastname":"rittanasatheiyn","firstname":"Saksith"},"state":1,"status":1,"token_expired":1547288042635,"x_access_token":"5869330f4b11f17233b8fce4214eb64b13bb1840ce649e579e53515f87796bbe","usertype_id":[],"__v":0}}] ResponseTime[40] -----

[2018-12-19 15:11:30:306] - info: ----- Start onQuery_Store_Product -----
[2018-12-19 15:11:30:306] - info: ----- incomming parameters Headers [{"host":"127.0.0.1:8080","connection":"keep-alive","accept":"application/json, text/plain, */*","origin":"http://localhost:4200","x_access_token":"5869330f4b11f17233b8fce4214eb64b13bb1840ce649e579e53515f87796bbe","authorization":"Bearer 5869330f4b11f17233b8fce4214eb64b13bb1840ce649e579e53515f87796bbe","user-agent":"Mozilla/5.0 (Macintosh; Intel Mac OS X 10_12_6) AppleWebKit/537.36 (KHTML, like Gecko) Chrome/71.0.3578.98 Safari/537.36","referer":"http://localhost:4200/store-product/store-product-by-company-warehouse-partner/5c0886aa354c4009a11d04c0/5c0f7bf2047a360f78482f44/5c0f7b7c047a360f78482f42/Partner%201","accept-encoding":"gzip, deflate, br","accept-language":"en-US,en;q=0.9"}] -----
[2018-12-19 15:11:30:306] - info: ----- incomming parameters Body [{"server_by":"5bd6db911db5528939d673d3"}] -----
[2018-12-19 15:11:30:306] - info: ----- request ip [::ffff:127.0.0.1] -----
[2018-12-19 15:11:30:306] - info: ----- ResponseMessage[{"api_number":0,"code":20000,"message":{"en":"Success","th":"ทำรายการเรียบร้อย"},"__v":0,"data":[{"company":{"_id":"5c0886aa354c4009a11d04c0","image":null,"description":"บ. ไทยจีพีเอส","title":"Thai GPS"},"warehouse":{"_id":"5c0f7bf2047a360f78482f44","enable":true,"description":"","title":"Warehouse 1"},"serial_product":{"_id":"5c0f7c27047a360f78482f46","type":{"_id":"5c05e18caca7290a33d82517","enable":true,"description":"มีส่วนผสมของแอลกอฮอล์","title":"แอลกอฮอล์"},"enable":true,"image":null,"description":"","title":"เบียร์","serial_product":"1234"},"charged_warehouse":{"export_value":10,"daily_freight":10,"import_value":10},"__v":0,"total":2,"remain":0},{"company":{"_id":"5c0886aa354c4009a11d04c0","image":null,"description":"บ. ไทยจีพีเอส","title":"Thai GPS"},"warehouse":{"_id":"5c0f7bf2047a360f78482f44","enable":true,"description":"","title":"Warehouse 1"},"serial_product":{"_id":"5c0f7c6e047a360f78482f49","type":{"_id":"5bf5074050edaa20be9f5514","enable":true,"description":"Juice","title":"เครื่องดื่ม"},"enable":true,"image":null,"description":"","title":"ไมโล","serial_product":"5678"},"charged_warehouse":{"export_value":10,"daily_freight":10,"import_value":10},"__v":0,"total":1,"remain":1},{"company":{"_id":"5c0886aa354c4009a11d04c0","image":null,"description":"บ. ไทยจีพีเอส","title":"Thai GPS"},"warehouse":{"_id":"5c0f7bf2047a360f78482f44","enable":true,"description":"","title":"Warehouse 1"},"serial_product":{"_id":"5c0f7c6e047a360f78482f49","type":{"_id":"5bf5074050edaa20be9f5514","enable":true,"description":"Juice","title":"เครื่องดื่ม"},"enable":true,"image":null,"description":"","title":"ไมโล","serial_product":"5678"},"charged_warehouse":{"export_value":10,"daily_freight":10,"import_value":10},"__v":0,"total":1,"remain":0}]}] ResponseTime[153] -----

[2018-12-19 15:12:20:979] - info: ----- Start onProfile_Update -----
[2018-12-19 15:12:20:979] - info: ----- incomming parameters Headers [{"host":"127.0.0.1:8080","connection":"keep-alive","accept":"application/json, text/plain, */*","origin":"http://localhost:4200","x_access_token":"5869330f4b11f17233b8fce4214eb64b13bb1840ce649e579e53515f87796bbe","authorization":"Bearer 5869330f4b11f17233b8fce4214eb64b13bb1840ce649e579e53515f87796bbe","user-agent":"Mozilla/5.0 (Macintosh; Intel Mac OS X 10_12_6) AppleWebKit/537.36 (KHTML, like Gecko) Chrome/71.0.3578.98 Safari/537.36","referer":"http://localhost:4200/store-product/store-product-by-company-warehouse-partner/5c0886aa354c4009a11d04c0/5c0f7bf2047a360f78482f44/5c0f7b7c047a360f78482f42/Partner%201","accept-encoding":"gzip, deflate, br","accept-language":"en-US,en;q=0.9"}] -----
[2018-12-19 15:12:20:979] - info: ----- incomming parameters Body [{"server_by":"5bd6db911db5528939d673d3"}] -----
[2018-12-19 15:12:20:979] - info: ----- request ip [::ffff:127.0.0.1] -----
[2018-12-19 15:12:20:979] - info: ----- ResponseMessage[{"api_number":0,"code":20000,"message":{"en":"Success","th":"ทำรายการเรียบร้อย"},"__v":0,"data":{"_id":"5bd6db911db5528939d673d3","username":"saksith","enable":true,"userinfo":{"birthday":"2018-11-15T17:00:00.000Z","msisdn":"031232132","email":"saksithgmail.com","address":{"zipcode":"","address":"rrr"},"google_id":"atchara_google","facebook_id":"d","lineid":"l","card_id":"c","image_profile":"http://127.0.0.1:8080/images/profiles/1542256274471.jpg","lastname":"rittanasatheiyn","firstname":"Saksith"},"state":1,"status":1,"token_expired":1547288042635,"x_access_token":"5869330f4b11f17233b8fce4214eb64b13bb1840ce649e579e53515f87796bbe","usertype_id":[],"__v":0}}] ResponseTime[359] -----

[2018-12-19 15:12:21:013] - info: ----- Start onQuery_Store_Product -----
[2018-12-19 15:12:21:013] - info: ----- incomming parameters Headers [{"host":"127.0.0.1:8080","connection":"keep-alive","accept":"application/json, text/plain, */*","origin":"http://localhost:4200","x_access_token":"5869330f4b11f17233b8fce4214eb64b13bb1840ce649e579e53515f87796bbe","authorization":"Bearer 5869330f4b11f17233b8fce4214eb64b13bb1840ce649e579e53515f87796bbe","user-agent":"Mozilla/5.0 (Macintosh; Intel Mac OS X 10_12_6) AppleWebKit/537.36 (KHTML, like Gecko) Chrome/71.0.3578.98 Safari/537.36","referer":"http://localhost:4200/store-product/store-product-by-company-warehouse-partner/5c0886aa354c4009a11d04c0/5c0f7bf2047a360f78482f44/5c0f7b7c047a360f78482f42/Partner%201","accept-encoding":"gzip, deflate, br","accept-language":"en-US,en;q=0.9"}] -----
[2018-12-19 15:12:21:013] - info: ----- incomming parameters Body [{"server_by":"5bd6db911db5528939d673d3"}] -----
[2018-12-19 15:12:21:013] - info: ----- request ip [::ffff:127.0.0.1] -----
[2018-12-19 15:12:21:014] - info: ----- ResponseMessage[{"api_number":0,"code":20000,"message":{"en":"Success","th":"ทำรายการเรียบร้อย"},"__v":0,"data":[{"company":{"_id":"5c0886aa354c4009a11d04c0","image":null,"description":"บ. ไทยจีพีเอส","title":"Thai GPS"},"warehouse":{"_id":"5c0f7bf2047a360f78482f44","enable":true,"description":"","title":"Warehouse 1"},"serial_product":{"_id":"5c0f7c27047a360f78482f46","type":{"_id":"5c05e18caca7290a33d82517","enable":true,"description":"มีส่วนผสมของแอลกอฮอล์","title":"แอลกอฮอล์"},"enable":true,"image":null,"description":"","title":"เบียร์","serial_product":"1234"},"charged_warehouse":{"export_value":10,"daily_freight":10,"import_value":10},"__v":0,"total":2,"remain":0},{"company":{"_id":"5c0886aa354c4009a11d04c0","image":null,"description":"บ. ไทยจีพีเอส","title":"Thai GPS"},"warehouse":{"_id":"5c0f7bf2047a360f78482f44","enable":true,"description":"","title":"Warehouse 1"},"serial_product":{"_id":"5c0f7c6e047a360f78482f49","type":{"_id":"5bf5074050edaa20be9f5514","enable":true,"description":"Juice","title":"เครื่องดื่ม"},"enable":true,"image":null,"description":"","title":"ไมโล","serial_product":"5678"},"charged_warehouse":{"export_value":10,"daily_freight":10,"import_value":10},"__v":0,"total":1,"remain":1},{"company":{"_id":"5c0886aa354c4009a11d04c0","image":null,"description":"บ. ไทยจีพีเอส","title":"Thai GPS"},"warehouse":{"_id":"5c0f7bf2047a360f78482f44","enable":true,"description":"","title":"Warehouse 1"},"serial_product":{"_id":"5c0f7c6e047a360f78482f49","type":{"_id":"5bf5074050edaa20be9f5514","enable":true,"description":"Juice","title":"เครื่องดื่ม"},"enable":true,"image":null,"description":"","title":"ไมโล","serial_product":"5678"},"charged_warehouse":{"export_value":10,"daily_freight":10,"import_value":10},"__v":0,"total":1,"remain":0}]}] ResponseTime[394] -----

[2018-12-19 15:12:25:858] - info: ----- Start onPartners -----
[2018-12-19 15:12:25:858] - info: ----- incomming parameters Headers [{"host":"127.0.0.1:8080","connection":"keep-alive","accept":"application/json, text/plain, */*","origin":"http://localhost:4200","x_access_token":"5869330f4b11f17233b8fce4214eb64b13bb1840ce649e579e53515f87796bbe","authorization":"Bearer 5869330f4b11f17233b8fce4214eb64b13bb1840ce649e579e53515f87796bbe","user-agent":"Mozilla/5.0 (Macintosh; Intel Mac OS X 10_12_6) AppleWebKit/537.36 (KHTML, like Gecko) Chrome/71.0.3578.98 Safari/537.36","referer":"http://localhost:4200/store-product/store-product-by-company-warehouse-partner/5c0886aa354c4009a11d04c0/5c0f7bf2047a360f78482f44/5c0f7b7c047a360f78482f42/Partner%201","accept-encoding":"gzip, deflate, br","accept-language":"en-US,en;q=0.9"}] -----
[2018-12-19 15:12:25:858] - info: ----- incomming parameters Body [{"server_by":"5bd6db911db5528939d673d3"}] -----
[2018-12-19 15:12:25:858] - info: ----- request ip [::ffff:127.0.0.1] -----
[2018-12-19 15:12:25:858] - info: ----- ResponseMessage[{"api_number":0,"code":20000,"message":{"en":"Success","th":"ทำรายการเรียบร้อย"},"__v":0,"data":[{"_id":"5c0f7b7c047a360f78482f42","company":"5c0886aa354c4009a11d04c0","update":[],"create":{"by":"5bd6db911db5528939d673d3","date":"2018-12-11T08:55:24.629Z"},"users":[{"by":"5bd6db911db5528939d673d3","_id":"5c0f7b7c047a360f78482f43"}],"enable":true,"invoice":[],"contact":{"long":null,"lat":null,"address":"","email":"","msisdn":"","name":"Partner one"},"title":"Partner 1","__v":0}]}] ResponseTime[84] -----

[2018-12-19 15:12:27:295] - info: ----- Start onQuery_Warehouses -----
[2018-12-19 15:12:27:295] - info: ----- incomming parameters Headers [{"host":"127.0.0.1:8080","connection":"keep-alive","accept":"application/json, text/plain, */*","origin":"http://localhost:4200","x_access_token":"5869330f4b11f17233b8fce4214eb64b13bb1840ce649e579e53515f87796bbe","authorization":"Bearer 5869330f4b11f17233b8fce4214eb64b13bb1840ce649e579e53515f87796bbe","user-agent":"Mozilla/5.0 (Macintosh; Intel Mac OS X 10_12_6) AppleWebKit/537.36 (KHTML, like Gecko) Chrome/71.0.3578.98 Safari/537.36","referer":"http://localhost:4200/store-product/store-product-by-company-warehouse-partner/5c0886aa354c4009a11d04c0/5c0f7bf2047a360f78482f44/5c0f7b7c047a360f78482f42/Partner%201","accept-encoding":"gzip, deflate, br","accept-language":"en-US,en;q=0.9"}] -----
[2018-12-19 15:12:27:295] - info: ----- incomming parameters Body [{"server_by":"5bd6db911db5528939d673d3"}] -----
[2018-12-19 15:12:27:295] - info: ----- request ip [::ffff:127.0.0.1] -----
[2018-12-19 15:12:27:295] - info: ----- ResponseMessage[{"api_number":0,"code":20000,"message":{"en":"Success","th":"ทำรายการเรียบร้อย"},"__v":0,"data":[{"_id":"5c0f7bf2047a360f78482f44","update":[],"create":{"by":"5bd6db911db5528939d673d3","date":"2018-12-11T08:57:22.086Z"},"enable":true,"support":[{"company":"5c0886aa354c4009a11d04c0","_id":"5c0f7bf2047a360f78482f45","charged_warehouse":{"export_value":10,"daily_freight":10,"import_value":10}}],"partners":["5c0f7b7c047a360f78482f42"],"description":"","title":"Warehouse 1","__v":0},{"_id":"5c0f8083047a360f78482f4c","update":[{"by":"5bd6db911db5528939d673d3","_id":"5c19bb552e23b10a6c156627","date":"2018-12-19T03:30:29.191Z"}],"create":{"by":"5bd6db911db5528939d673d3","date":"2018-12-11T09:16:51.163Z"},"enable":true,"support":[],"partners":["5c0f7b7c047a360f78482f42"],"description":"","title":"Warehouse 2","__v":0},{"_id":"5c1771048427b00a96c0c060","update":[{"by":"5bd6db911db5528939d673d3","_id":"5c19b5642e23b10a6c156625","date":"2018-12-19T03:05:08.054Z"},{"by":"5bd6db911db5528939d673d3","_id":"5c19b5882e23b10a6c156626","date":"2018-12-19T03:05:44.880Z"}],"create":{"by":"5bd6db911db5528939d673d3","date":"2018-12-17T09:48:52.782Z"},"enable":true,"support":[],"partners":["5c0f7b7c047a360f78482f42"],"description":"","title":"warehouse 3","__v":0},{"_id":"5c19cc362e23b10a6c156628","update":[],"create":{"by":"5bd6db911db5528939d673d3","date":"2018-12-19T04:42:30.672Z"},"enable":true,"support":[{"company":"5c0886aa354c4009a11d04c0","_id":"5c19cc362e23b10a6c156629","charged_warehouse":{"export_value":30,"daily_freight":30,"import_value":20}}],"partners":["5c0f7b7c047a360f78482f42"],"description":"","title":"Warehouse G","__v":0}]}] ResponseTime[38] -----

[2018-12-19 15:13:47:815] - info: ----- Start onProfile_Update -----
[2018-12-19 15:13:47:815] - info: ----- incomming parameters Headers [{"host":"127.0.0.1:8080","connection":"keep-alive","accept":"application/json, text/plain, */*","origin":"http://localhost:4200","x_access_token":"5869330f4b11f17233b8fce4214eb64b13bb1840ce649e579e53515f87796bbe","authorization":"Bearer 5869330f4b11f17233b8fce4214eb64b13bb1840ce649e579e53515f87796bbe","user-agent":"Mozilla/5.0 (Macintosh; Intel Mac OS X 10_12_6) AppleWebKit/537.36 (KHTML, like Gecko) Chrome/71.0.3578.98 Safari/537.36","referer":"http://localhost:4200/store-product/store-product-by-company-warehouse-partner/5c0886aa354c4009a11d04c0/5c0f7bf2047a360f78482f44/5c0f7b7c047a360f78482f42/Partner%201","accept-encoding":"gzip, deflate, br","accept-language":"en-US,en;q=0.9"}] -----
[2018-12-19 15:13:47:815] - info: ----- incomming parameters Body [{"server_by":"5bd6db911db5528939d673d3"}] -----
[2018-12-19 15:13:47:815] - info: ----- request ip [::ffff:127.0.0.1] -----
[2018-12-19 15:13:47:815] - info: ----- ResponseMessage[{"api_number":0,"code":20000,"message":{"en":"Success","th":"ทำรายการเรียบร้อย"},"__v":0,"data":{"_id":"5bd6db911db5528939d673d3","username":"saksith","enable":true,"userinfo":{"birthday":"2018-11-15T17:00:00.000Z","msisdn":"031232132","email":"saksithgmail.com","address":{"zipcode":"","address":"rrr"},"google_id":"atchara_google","facebook_id":"d","lineid":"l","card_id":"c","image_profile":"http://127.0.0.1:8080/images/profiles/1542256274471.jpg","lastname":"rittanasatheiyn","firstname":"Saksith"},"state":1,"status":1,"token_expired":1547288042635,"x_access_token":"5869330f4b11f17233b8fce4214eb64b13bb1840ce649e579e53515f87796bbe","usertype_id":[],"__v":0}}] ResponseTime[120] -----

[2018-12-19 15:13:47:853] - info: ----- Start onQuery_Store_Product -----
[2018-12-19 15:13:47:853] - info: ----- incomming parameters Headers [{"host":"127.0.0.1:8080","connection":"keep-alive","accept":"application/json, text/plain, */*","origin":"http://localhost:4200","x_access_token":"5869330f4b11f17233b8fce4214eb64b13bb1840ce649e579e53515f87796bbe","authorization":"Bearer 5869330f4b11f17233b8fce4214eb64b13bb1840ce649e579e53515f87796bbe","user-agent":"Mozilla/5.0 (Macintosh; Intel Mac OS X 10_12_6) AppleWebKit/537.36 (KHTML, like Gecko) Chrome/71.0.3578.98 Safari/537.36","referer":"http://localhost:4200/store-product/store-product-by-company-warehouse-partner/5c0886aa354c4009a11d04c0/5c0f7bf2047a360f78482f44/5c0f7b7c047a360f78482f42/Partner%201","accept-encoding":"gzip, deflate, br","accept-language":"en-US,en;q=0.9"}] -----
[2018-12-19 15:13:47:853] - info: ----- incomming parameters Body [{"server_by":"5bd6db911db5528939d673d3"}] -----
[2018-12-19 15:13:47:853] - info: ----- request ip [::ffff:127.0.0.1] -----
[2018-12-19 15:13:47:853] - info: ----- ResponseMessage[{"api_number":0,"code":20000,"message":{"en":"Success","th":"ทำรายการเรียบร้อย"},"__v":0,"data":[{"company":{"_id":"5c0886aa354c4009a11d04c0","image":null,"description":"บ. ไทยจีพีเอส","title":"Thai GPS"},"warehouse":{"_id":"5c0f7bf2047a360f78482f44","enable":true,"description":"","title":"Warehouse 1"},"serial_product":{"_id":"5c0f7c27047a360f78482f46","type":{"_id":"5c05e18caca7290a33d82517","enable":true,"description":"มีส่วนผสมของแอลกอฮอล์","title":"แอลกอฮอล์"},"enable":true,"image":null,"description":"","title":"เบียร์","serial_product":"1234"},"charged_warehouse":{"export_value":10,"daily_freight":10,"import_value":10},"__v":0,"total":2,"remain":0},{"company":{"_id":"5c0886aa354c4009a11d04c0","image":null,"description":"บ. ไทยจีพีเอส","title":"Thai GPS"},"warehouse":{"_id":"5c0f7bf2047a360f78482f44","enable":true,"description":"","title":"Warehouse 1"},"serial_product":{"_id":"5c0f7c6e047a360f78482f49","type":{"_id":"5bf5074050edaa20be9f5514","enable":true,"description":"Juice","title":"เครื่องดื่ม"},"enable":true,"image":null,"description":"","title":"ไมโล","serial_product":"5678"},"charged_warehouse":{"export_value":10,"daily_freight":10,"import_value":10},"__v":0,"total":1,"remain":1},{"company":{"_id":"5c0886aa354c4009a11d04c0","image":null,"description":"บ. ไทยจีพีเอส","title":"Thai GPS"},"warehouse":{"_id":"5c0f7bf2047a360f78482f44","enable":true,"description":"","title":"Warehouse 1"},"serial_product":{"_id":"5c0f7c6e047a360f78482f49","type":{"_id":"5bf5074050edaa20be9f5514","enable":true,"description":"Juice","title":"เครื่องดื่ม"},"enable":true,"image":null,"description":"","title":"ไมโล","serial_product":"5678"},"charged_warehouse":{"export_value":10,"daily_freight":10,"import_value":10},"__v":0,"total":1,"remain":0}]}] ResponseTime[157] -----

[2018-12-19 15:13:51:821] - info: ----- Start onPartners -----
[2018-12-19 15:13:51:821] - info: ----- incomming parameters Headers [{"host":"127.0.0.1:8080","connection":"keep-alive","accept":"application/json, text/plain, */*","origin":"http://localhost:4200","x_access_token":"5869330f4b11f17233b8fce4214eb64b13bb1840ce649e579e53515f87796bbe","authorization":"Bearer 5869330f4b11f17233b8fce4214eb64b13bb1840ce649e579e53515f87796bbe","user-agent":"Mozilla/5.0 (Macintosh; Intel Mac OS X 10_12_6) AppleWebKit/537.36 (KHTML, like Gecko) Chrome/71.0.3578.98 Safari/537.36","referer":"http://localhost:4200/store-product/store-product-by-company-warehouse-partner/5c0886aa354c4009a11d04c0/5c0f7bf2047a360f78482f44/5c0f7b7c047a360f78482f42/Partner%201","accept-encoding":"gzip, deflate, br","accept-language":"en-US,en;q=0.9"}] -----
[2018-12-19 15:13:51:821] - info: ----- incomming parameters Body [{"server_by":"5bd6db911db5528939d673d3"}] -----
[2018-12-19 15:13:51:821] - info: ----- request ip [::ffff:127.0.0.1] -----
[2018-12-19 15:13:51:821] - info: ----- ResponseMessage[{"api_number":0,"code":20000,"message":{"en":"Success","th":"ทำรายการเรียบร้อย"},"__v":0,"data":[{"_id":"5c0f7b7c047a360f78482f42","company":"5c0886aa354c4009a11d04c0","update":[],"create":{"by":"5bd6db911db5528939d673d3","date":"2018-12-11T08:55:24.629Z"},"users":[{"by":"5bd6db911db5528939d673d3","_id":"5c0f7b7c047a360f78482f43"}],"enable":true,"invoice":[],"contact":{"long":null,"lat":null,"address":"","email":"","msisdn":"","name":"Partner one"},"title":"Partner 1","__v":0}]}] ResponseTime[33] -----

[2018-12-19 15:13:53:202] - info: ----- Start onQuery_Warehouses -----
[2018-12-19 15:13:53:202] - info: ----- incomming parameters Headers [{"host":"127.0.0.1:8080","connection":"keep-alive","accept":"application/json, text/plain, */*","origin":"http://localhost:4200","x_access_token":"5869330f4b11f17233b8fce4214eb64b13bb1840ce649e579e53515f87796bbe","authorization":"Bearer 5869330f4b11f17233b8fce4214eb64b13bb1840ce649e579e53515f87796bbe","user-agent":"Mozilla/5.0 (Macintosh; Intel Mac OS X 10_12_6) AppleWebKit/537.36 (KHTML, like Gecko) Chrome/71.0.3578.98 Safari/537.36","referer":"http://localhost:4200/store-product/store-product-by-company-warehouse-partner/5c0886aa354c4009a11d04c0/5c0f7bf2047a360f78482f44/5c0f7b7c047a360f78482f42/Partner%201","accept-encoding":"gzip, deflate, br","accept-language":"en-US,en;q=0.9"}] -----
[2018-12-19 15:13:53:202] - info: ----- incomming parameters Body [{"server_by":"5bd6db911db5528939d673d3"}] -----
[2018-12-19 15:13:53:202] - info: ----- request ip [::ffff:127.0.0.1] -----
[2018-12-19 15:13:53:202] - info: ----- ResponseMessage[{"api_number":0,"code":20000,"message":{"en":"Success","th":"ทำรายการเรียบร้อย"},"__v":0,"data":[{"_id":"5c0f7bf2047a360f78482f44","update":[],"create":{"by":"5bd6db911db5528939d673d3","date":"2018-12-11T08:57:22.086Z"},"enable":true,"support":[{"company":"5c0886aa354c4009a11d04c0","_id":"5c0f7bf2047a360f78482f45","charged_warehouse":{"export_value":10,"daily_freight":10,"import_value":10}}],"partners":["5c0f7b7c047a360f78482f42"],"description":"","title":"Warehouse 1","__v":0},{"_id":"5c0f8083047a360f78482f4c","update":[{"by":"5bd6db911db5528939d673d3","_id":"5c19bb552e23b10a6c156627","date":"2018-12-19T03:30:29.191Z"}],"create":{"by":"5bd6db911db5528939d673d3","date":"2018-12-11T09:16:51.163Z"},"enable":true,"support":[],"partners":["5c0f7b7c047a360f78482f42"],"description":"","title":"Warehouse 2","__v":0},{"_id":"5c1771048427b00a96c0c060","update":[{"by":"5bd6db911db5528939d673d3","_id":"5c19b5642e23b10a6c156625","date":"2018-12-19T03:05:08.054Z"},{"by":"5bd6db911db5528939d673d3","_id":"5c19b5882e23b10a6c156626","date":"2018-12-19T03:05:44.880Z"}],"create":{"by":"5bd6db911db5528939d673d3","date":"2018-12-17T09:48:52.782Z"},"enable":true,"support":[],"partners":["5c0f7b7c047a360f78482f42"],"description":"","title":"warehouse 3","__v":0},{"_id":"5c19cc362e23b10a6c156628","update":[],"create":{"by":"5bd6db911db5528939d673d3","date":"2018-12-19T04:42:30.672Z"},"enable":true,"support":[{"company":"5c0886aa354c4009a11d04c0","_id":"5c19cc362e23b10a6c156629","charged_warehouse":{"export_value":30,"daily_freight":30,"import_value":20}}],"partners":["5c0f7b7c047a360f78482f42"],"description":"","title":"Warehouse G","__v":0}]}] ResponseTime[39] -----

