[2018-12-19 13:46:35:384] - info: ----- Start onProfile_Update -----
[2018-12-19 13:46:35:384] - info: ----- incomming parameters Headers [{"host":"127.0.0.1:8080","connection":"keep-alive","accept":"application/json, text/plain, */*","origin":"http://localhost:4200","x_access_token":"5869330f4b11f17233b8fce4214eb64b13bb1840ce649e579e53515f87796bbe","authorization":"Bearer 5869330f4b11f17233b8fce4214eb64b13bb1840ce649e579e53515f87796bbe","user-agent":"Mozilla/5.0 (Macintosh; Intel Mac OS X 10_12_6) AppleWebKit/537.36 (KHTML, like Gecko) Chrome/71.0.3578.98 Safari/537.36","referer":"http://localhost:4200/store-product/store-product-by-company-warehouse/5c0886aa354c4009a11d04c0/5c0f7bf2047a360f78482f44","accept-encoding":"gzip, deflate, br","accept-language":"en-US,en;q=0.9"}] -----
[2018-12-19 13:46:35:384] - info: ----- incomming parameters Body [{"server_by":"5bd6db911db5528939d673d3"}] -----
[2018-12-19 13:46:35:384] - info: ----- request ip [::ffff:127.0.0.1] -----
[2018-12-19 13:46:35:384] - info: ----- ResponseMessage[{"api_number":0,"code":20000,"message":{"en":"Success","th":"ทำรายการเรียบร้อย"},"__v":0,"data":{"_id":"5bd6db911db5528939d673d3","username":"saksith","enable":true,"userinfo":{"birthday":"2018-11-15T17:00:00.000Z","msisdn":"031232132","email":"saksithgmail.com","address":{"zipcode":"","address":"rrr"},"google_id":"atchara_google","facebook_id":"d","lineid":"l","card_id":"c","image_profile":"http://127.0.0.1:8080/images/profiles/1542256274471.jpg","lastname":"rittanasatheiyn","firstname":"Saksith"},"state":1,"status":1,"token_expired":1547288042635,"x_access_token":"5869330f4b11f17233b8fce4214eb64b13bb1840ce649e579e53515f87796bbe","usertype_id":[],"__v":0}}] ResponseTime[35] -----

[2018-12-19 13:46:35:430] - info: ----- Start onQuery_Store_Product -----
[2018-12-19 13:46:35:430] - info: ----- incomming parameters Headers [{"host":"127.0.0.1:8080","connection":"keep-alive","accept":"application/json, text/plain, */*","origin":"http://localhost:4200","x_access_token":"5869330f4b11f17233b8fce4214eb64b13bb1840ce649e579e53515f87796bbe","authorization":"Bearer 5869330f4b11f17233b8fce4214eb64b13bb1840ce649e579e53515f87796bbe","user-agent":"Mozilla/5.0 (Macintosh; Intel Mac OS X 10_12_6) AppleWebKit/537.36 (KHTML, like Gecko) Chrome/71.0.3578.98 Safari/537.36","referer":"http://localhost:4200/store-product/store-product-by-company-warehouse/5c0886aa354c4009a11d04c0/5c0f7bf2047a360f78482f44","accept-encoding":"gzip, deflate, br","accept-language":"en-US,en;q=0.9"}] -----
[2018-12-19 13:46:35:430] - info: ----- incomming parameters Body [{"server_by":"5bd6db911db5528939d673d3"}] -----
[2018-12-19 13:46:35:430] - info: ----- request ip [::ffff:127.0.0.1] -----
[2018-12-19 13:46:35:431] - info: ----- ResponseMessage[{"api_number":0,"code":20000,"message":{"en":"Success","th":"ทำรายการเรียบร้อย"},"__v":0,"data":[{"company":{"_id":"5c0886aa354c4009a11d04c0","image":null,"description":"บ. ไทยจีพีเอส","title":"Thai GPS"},"warehouse":{"_id":"5c0f7bf2047a360f78482f44","enable":true,"description":"","title":"Warehouse 1"},"serial_product":{"_id":"5c0f7c27047a360f78482f46","type":{"_id":"5c05e18caca7290a33d82517","enable":true,"description":"มีส่วนผสมของแอลกอฮอล์","title":"แอลกอฮอล์"},"enable":true,"image":null,"description":"","title":"เบียร์","serial_product":"1234"},"charged_warehouse":{"export_value":10,"daily_freight":10,"import_value":10},"__v":0,"total":2,"remain":1},{"company":{"_id":"5c0886aa354c4009a11d04c0","image":null,"description":"บ. ไทยจีพีเอส","title":"Thai GPS"},"warehouse":{"_id":"5c0f7bf2047a360f78482f44","enable":true,"description":"","title":"Warehouse 1"},"serial_product":{"_id":"5c0f7c6e047a360f78482f49","type":{"_id":"5bf5074050edaa20be9f5514","enable":true,"description":"Juice","title":"เครื่องดื่ม"},"enable":true,"image":null,"description":"","title":"ไมโล","serial_product":"5678"},"charged_warehouse":{"export_value":10,"daily_freight":10,"import_value":10},"__v":0,"total":1,"remain":1},{"company":{"_id":"5c0886aa354c4009a11d04c0","image":null,"description":"บ. ไทยจีพีเอส","title":"Thai GPS"},"warehouse":{"_id":"5c0f7bf2047a360f78482f44","enable":true,"description":"","title":"Warehouse 1"},"serial_product":{"_id":"5c0f7c6e047a360f78482f49","type":{"_id":"5bf5074050edaa20be9f5514","enable":true,"description":"Juice","title":"เครื่องดื่ม"},"enable":true,"image":null,"description":"","title":"ไมโล","serial_product":"5678"},"charged_warehouse":{"export_value":10,"daily_freight":10,"import_value":10},"__v":0,"total":1,"remain":0}]}] ResponseTime[81] -----

[2018-12-19 13:48:11:914] - info: ----- Start onProfile_Update -----
[2018-12-19 13:48:11:914] - info: ----- incomming parameters Headers [{"host":"127.0.0.1:8080","connection":"keep-alive","accept":"application/json, text/plain, */*","origin":"http://localhost:4200","x_access_token":"5869330f4b11f17233b8fce4214eb64b13bb1840ce649e579e53515f87796bbe","authorization":"Bearer 5869330f4b11f17233b8fce4214eb64b13bb1840ce649e579e53515f87796bbe","user-agent":"Mozilla/5.0 (Macintosh; Intel Mac OS X 10_12_6) AppleWebKit/537.36 (KHTML, like Gecko) Chrome/71.0.3578.98 Safari/537.36","referer":"http://localhost:4200/store-product/store-product-by-company-warehouse/5c0886aa354c4009a11d04c0/5c0f7bf2047a360f78482f44","accept-encoding":"gzip, deflate, br","accept-language":"en-US,en;q=0.9"}] -----
[2018-12-19 13:48:11:914] - info: ----- incomming parameters Body [{"server_by":"5bd6db911db5528939d673d3"}] -----
[2018-12-19 13:48:11:914] - info: ----- request ip [::ffff:127.0.0.1] -----
[2018-12-19 13:48:11:914] - info: ----- ResponseMessage[{"api_number":0,"code":20000,"message":{"en":"Success","th":"ทำรายการเรียบร้อย"},"__v":0,"data":{"_id":"5bd6db911db5528939d673d3","username":"saksith","enable":true,"userinfo":{"birthday":"2018-11-15T17:00:00.000Z","msisdn":"031232132","email":"saksithgmail.com","address":{"zipcode":"","address":"rrr"},"google_id":"atchara_google","facebook_id":"d","lineid":"l","card_id":"c","image_profile":"http://127.0.0.1:8080/images/profiles/1542256274471.jpg","lastname":"rittanasatheiyn","firstname":"Saksith"},"state":1,"status":1,"token_expired":1547288042635,"x_access_token":"5869330f4b11f17233b8fce4214eb64b13bb1840ce649e579e53515f87796bbe","usertype_id":[],"__v":0}}] ResponseTime[43] -----

[2018-12-19 13:48:11:951] - info: ----- Start onQuery_Store_Product -----
[2018-12-19 13:48:11:951] - info: ----- incomming parameters Headers [{"host":"127.0.0.1:8080","connection":"keep-alive","accept":"application/json, text/plain, */*","origin":"http://localhost:4200","x_access_token":"5869330f4b11f17233b8fce4214eb64b13bb1840ce649e579e53515f87796bbe","authorization":"Bearer 5869330f4b11f17233b8fce4214eb64b13bb1840ce649e579e53515f87796bbe","user-agent":"Mozilla/5.0 (Macintosh; Intel Mac OS X 10_12_6) AppleWebKit/537.36 (KHTML, like Gecko) Chrome/71.0.3578.98 Safari/537.36","referer":"http://localhost:4200/store-product/store-product-by-company-warehouse/5c0886aa354c4009a11d04c0/5c0f7bf2047a360f78482f44","accept-encoding":"gzip, deflate, br","accept-language":"en-US,en;q=0.9"}] -----
[2018-12-19 13:48:11:951] - info: ----- incomming parameters Body [{"server_by":"5bd6db911db5528939d673d3"}] -----
[2018-12-19 13:48:11:951] - info: ----- request ip [::ffff:127.0.0.1] -----
[2018-12-19 13:48:11:951] - info: ----- ResponseMessage[{"api_number":0,"code":20000,"message":{"en":"Success","th":"ทำรายการเรียบร้อย"},"__v":0,"data":[{"company":{"_id":"5c0886aa354c4009a11d04c0","image":null,"description":"บ. ไทยจีพีเอส","title":"Thai GPS"},"warehouse":{"_id":"5c0f7bf2047a360f78482f44","enable":true,"description":"","title":"Warehouse 1"},"serial_product":{"_id":"5c0f7c27047a360f78482f46","type":{"_id":"5c05e18caca7290a33d82517","enable":true,"description":"มีส่วนผสมของแอลกอฮอล์","title":"แอลกอฮอล์"},"enable":true,"image":null,"description":"","title":"เบียร์","serial_product":"1234"},"charged_warehouse":{"export_value":10,"daily_freight":10,"import_value":10},"__v":0,"total":2,"remain":1},{"company":{"_id":"5c0886aa354c4009a11d04c0","image":null,"description":"บ. ไทยจีพีเอส","title":"Thai GPS"},"warehouse":{"_id":"5c0f7bf2047a360f78482f44","enable":true,"description":"","title":"Warehouse 1"},"serial_product":{"_id":"5c0f7c6e047a360f78482f49","type":{"_id":"5bf5074050edaa20be9f5514","enable":true,"description":"Juice","title":"เครื่องดื่ม"},"enable":true,"image":null,"description":"","title":"ไมโล","serial_product":"5678"},"charged_warehouse":{"export_value":10,"daily_freight":10,"import_value":10},"__v":0,"total":1,"remain":1},{"company":{"_id":"5c0886aa354c4009a11d04c0","image":null,"description":"บ. ไทยจีพีเอส","title":"Thai GPS"},"warehouse":{"_id":"5c0f7bf2047a360f78482f44","enable":true,"description":"","title":"Warehouse 1"},"serial_product":{"_id":"5c0f7c6e047a360f78482f49","type":{"_id":"5bf5074050edaa20be9f5514","enable":true,"description":"Juice","title":"เครื่องดื่ม"},"enable":true,"image":null,"description":"","title":"ไมโล","serial_product":"5678"},"charged_warehouse":{"export_value":10,"daily_freight":10,"import_value":10},"__v":0,"total":1,"remain":0}]}] ResponseTime[82] -----

[2018-12-19 13:48:42:191] - info: ----- Start onQuery_Warehouses -----
[2018-12-19 13:48:42:191] - info: ----- incomming parameters Headers [{"host":"127.0.0.1:8080","connection":"keep-alive","accept":"application/json, text/plain, */*","origin":"http://localhost:4200","x_access_token":"5869330f4b11f17233b8fce4214eb64b13bb1840ce649e579e53515f87796bbe","authorization":"Bearer 5869330f4b11f17233b8fce4214eb64b13bb1840ce649e579e53515f87796bbe","user-agent":"Mozilla/5.0 (Macintosh; Intel Mac OS X 10_12_6) AppleWebKit/537.36 (KHTML, like Gecko) Chrome/71.0.3578.98 Safari/537.36","referer":"http://localhost:4200/store-product/store-product-by-company-warehouse/5c0886aa354c4009a11d04c0/5c0f7bf2047a360f78482f44","accept-encoding":"gzip, deflate, br","accept-language":"en-US,en;q=0.9"}] -----
[2018-12-19 13:48:42:192] - info: ----- incomming parameters Body [{"server_by":"5bd6db911db5528939d673d3"}] -----
[2018-12-19 13:48:42:192] - info: ----- request ip [::ffff:127.0.0.1] -----
[2018-12-19 13:48:42:192] - info: ----- ResponseMessage[{"api_number":0,"code":20000,"message":{"en":"Success","th":"ทำรายการเรียบร้อย"},"__v":0,"data":[{"_id":"5c0f7bf2047a360f78482f44","update":[],"create":{"by":"5bd6db911db5528939d673d3","date":"2018-12-11T08:57:22.086Z"},"enable":true,"support":[{"company":"5c0886aa354c4009a11d04c0","_id":"5c0f7bf2047a360f78482f45","charged_warehouse":{"export_value":10,"daily_freight":10,"import_value":10}}],"partners":["5c0f7b7c047a360f78482f42"],"description":"","title":"Warehouse 1","__v":0},{"_id":"5c0f8083047a360f78482f4c","update":[{"by":"5bd6db911db5528939d673d3","_id":"5c19bb552e23b10a6c156627","date":"2018-12-19T03:30:29.191Z"}],"create":{"by":"5bd6db911db5528939d673d3","date":"2018-12-11T09:16:51.163Z"},"enable":true,"support":[],"partners":["5c0f7b7c047a360f78482f42"],"description":"","title":"Warehouse 2","__v":0},{"_id":"5c1771048427b00a96c0c060","update":[{"by":"5bd6db911db5528939d673d3","_id":"5c19b5642e23b10a6c156625","date":"2018-12-19T03:05:08.054Z"},{"by":"5bd6db911db5528939d673d3","_id":"5c19b5882e23b10a6c156626","date":"2018-12-19T03:05:44.880Z"}],"create":{"by":"5bd6db911db5528939d673d3","date":"2018-12-17T09:48:52.782Z"},"enable":true,"support":[],"partners":["5c0f7b7c047a360f78482f42"],"description":"","title":"warehouse 3","__v":0},{"_id":"5c19cc362e23b10a6c156628","update":[],"create":{"by":"5bd6db911db5528939d673d3","date":"2018-12-19T04:42:30.672Z"},"enable":true,"support":[{"company":"5c0886aa354c4009a11d04c0","_id":"5c19cc362e23b10a6c156629","charged_warehouse":{"export_value":30,"daily_freight":30,"import_value":20}}],"partners":["5c0f7b7c047a360f78482f42"],"description":"","title":"Warehouse G","__v":0}]}] ResponseTime[46] -----

[2018-12-19 13:50:40:703] - info: ----- Start onProfile_Update -----
[2018-12-19 13:50:40:703] - info: ----- incomming parameters Headers [{"host":"127.0.0.1:8080","connection":"keep-alive","accept":"application/json, text/plain, */*","origin":"http://localhost:4200","x_access_token":"5869330f4b11f17233b8fce4214eb64b13bb1840ce649e579e53515f87796bbe","authorization":"Bearer 5869330f4b11f17233b8fce4214eb64b13bb1840ce649e579e53515f87796bbe","user-agent":"Mozilla/5.0 (Macintosh; Intel Mac OS X 10_12_6) AppleWebKit/537.36 (KHTML, like Gecko) Chrome/71.0.3578.98 Safari/537.36","referer":"http://localhost:4200/store-product/store-product-by-company-warehouse/5c0886aa354c4009a11d04c0/5c0f7bf2047a360f78482f44","accept-encoding":"gzip, deflate, br","accept-language":"en-US,en;q=0.9"}] -----
[2018-12-19 13:50:40:703] - info: ----- incomming parameters Body [{"server_by":"5bd6db911db5528939d673d3"}] -----
[2018-12-19 13:50:40:704] - info: ----- request ip [::ffff:127.0.0.1] -----
[2018-12-19 13:50:40:704] - info: ----- ResponseMessage[{"api_number":0,"code":20000,"message":{"en":"Success","th":"ทำรายการเรียบร้อย"},"__v":0,"data":{"_id":"5bd6db911db5528939d673d3","username":"saksith","enable":true,"userinfo":{"birthday":"2018-11-15T17:00:00.000Z","msisdn":"031232132","email":"saksithgmail.com","address":{"zipcode":"","address":"rrr"},"google_id":"atchara_google","facebook_id":"d","lineid":"l","card_id":"c","image_profile":"http://127.0.0.1:8080/images/profiles/1542256274471.jpg","lastname":"rittanasatheiyn","firstname":"Saksith"},"state":1,"status":1,"token_expired":1547288042635,"x_access_token":"5869330f4b11f17233b8fce4214eb64b13bb1840ce649e579e53515f87796bbe","usertype_id":[],"__v":0}}] ResponseTime[50] -----

[2018-12-19 13:50:40:740] - info: ----- Start onQuery_Store_Product -----
[2018-12-19 13:50:40:740] - info: ----- incomming parameters Headers [{"host":"127.0.0.1:8080","connection":"keep-alive","accept":"application/json, text/plain, */*","origin":"http://localhost:4200","x_access_token":"5869330f4b11f17233b8fce4214eb64b13bb1840ce649e579e53515f87796bbe","authorization":"Bearer 5869330f4b11f17233b8fce4214eb64b13bb1840ce649e579e53515f87796bbe","user-agent":"Mozilla/5.0 (Macintosh; Intel Mac OS X 10_12_6) AppleWebKit/537.36 (KHTML, like Gecko) Chrome/71.0.3578.98 Safari/537.36","referer":"http://localhost:4200/store-product/store-product-by-company-warehouse/5c0886aa354c4009a11d04c0/5c0f7bf2047a360f78482f44","accept-encoding":"gzip, deflate, br","accept-language":"en-US,en;q=0.9"}] -----
[2018-12-19 13:50:40:740] - info: ----- incomming parameters Body [{"server_by":"5bd6db911db5528939d673d3"}] -----
[2018-12-19 13:50:40:741] - info: ----- request ip [::ffff:127.0.0.1] -----
[2018-12-19 13:50:40:742] - info: ----- ResponseMessage[{"api_number":0,"code":20000,"message":{"en":"Success","th":"ทำรายการเรียบร้อย"},"__v":0,"data":[{"company":{"_id":"5c0886aa354c4009a11d04c0","image":null,"description":"บ. ไทยจีพีเอส","title":"Thai GPS"},"warehouse":{"_id":"5c0f7bf2047a360f78482f44","enable":true,"description":"","title":"Warehouse 1"},"serial_product":{"_id":"5c0f7c27047a360f78482f46","type":{"_id":"5c05e18caca7290a33d82517","enable":true,"description":"มีส่วนผสมของแอลกอฮอล์","title":"แอลกอฮอล์"},"enable":true,"image":null,"description":"","title":"เบียร์","serial_product":"1234"},"charged_warehouse":{"export_value":10,"daily_freight":10,"import_value":10},"__v":0,"total":2,"remain":1},{"company":{"_id":"5c0886aa354c4009a11d04c0","image":null,"description":"บ. ไทยจีพีเอส","title":"Thai GPS"},"warehouse":{"_id":"5c0f7bf2047a360f78482f44","enable":true,"description":"","title":"Warehouse 1"},"serial_product":{"_id":"5c0f7c6e047a360f78482f49","type":{"_id":"5bf5074050edaa20be9f5514","enable":true,"description":"Juice","title":"เครื่องดื่ม"},"enable":true,"image":null,"description":"","title":"ไมโล","serial_product":"5678"},"charged_warehouse":{"export_value":10,"daily_freight":10,"import_value":10},"__v":0,"total":1,"remain":1},{"company":{"_id":"5c0886aa354c4009a11d04c0","image":null,"description":"บ. ไทยจีพีเอส","title":"Thai GPS"},"warehouse":{"_id":"5c0f7bf2047a360f78482f44","enable":true,"description":"","title":"Warehouse 1"},"serial_product":{"_id":"5c0f7c6e047a360f78482f49","type":{"_id":"5bf5074050edaa20be9f5514","enable":true,"description":"Juice","title":"เครื่องดื่ม"},"enable":true,"image":null,"description":"","title":"ไมโล","serial_product":"5678"},"charged_warehouse":{"export_value":10,"daily_freight":10,"import_value":10},"__v":0,"total":1,"remain":0}]}] ResponseTime[81] -----

[2018-12-19 13:50:42:618] - info: ----- Start onQuery_Warehouses -----
[2018-12-19 13:50:42:618] - info: ----- incomming parameters Headers [{"host":"127.0.0.1:8080","connection":"keep-alive","accept":"application/json, text/plain, */*","origin":"http://localhost:4200","x_access_token":"5869330f4b11f17233b8fce4214eb64b13bb1840ce649e579e53515f87796bbe","authorization":"Bearer 5869330f4b11f17233b8fce4214eb64b13bb1840ce649e579e53515f87796bbe","user-agent":"Mozilla/5.0 (Macintosh; Intel Mac OS X 10_12_6) AppleWebKit/537.36 (KHTML, like Gecko) Chrome/71.0.3578.98 Safari/537.36","referer":"http://localhost:4200/store-product/store-product-by-company-warehouse/5c0886aa354c4009a11d04c0/5c0f7bf2047a360f78482f44","accept-encoding":"gzip, deflate, br","accept-language":"en-US,en;q=0.9"}] -----
[2018-12-19 13:50:42:618] - info: ----- incomming parameters Body [{"server_by":"5bd6db911db5528939d673d3"}] -----
[2018-12-19 13:50:42:618] - info: ----- request ip [::ffff:127.0.0.1] -----
[2018-12-19 13:50:42:618] - info: ----- ResponseMessage[{"api_number":0,"code":20000,"message":{"en":"Success","th":"ทำรายการเรียบร้อย"},"__v":0,"data":[{"_id":"5c0f7bf2047a360f78482f44","update":[],"create":{"by":"5bd6db911db5528939d673d3","date":"2018-12-11T08:57:22.086Z"},"enable":true,"support":[{"company":"5c0886aa354c4009a11d04c0","_id":"5c0f7bf2047a360f78482f45","charged_warehouse":{"export_value":10,"daily_freight":10,"import_value":10}}],"partners":["5c0f7b7c047a360f78482f42"],"description":"","title":"Warehouse 1","__v":0},{"_id":"5c0f8083047a360f78482f4c","update":[{"by":"5bd6db911db5528939d673d3","_id":"5c19bb552e23b10a6c156627","date":"2018-12-19T03:30:29.191Z"}],"create":{"by":"5bd6db911db5528939d673d3","date":"2018-12-11T09:16:51.163Z"},"enable":true,"support":[],"partners":["5c0f7b7c047a360f78482f42"],"description":"","title":"Warehouse 2","__v":0},{"_id":"5c1771048427b00a96c0c060","update":[{"by":"5bd6db911db5528939d673d3","_id":"5c19b5642e23b10a6c156625","date":"2018-12-19T03:05:08.054Z"},{"by":"5bd6db911db5528939d673d3","_id":"5c19b5882e23b10a6c156626","date":"2018-12-19T03:05:44.880Z"}],"create":{"by":"5bd6db911db5528939d673d3","date":"2018-12-17T09:48:52.782Z"},"enable":true,"support":[],"partners":["5c0f7b7c047a360f78482f42"],"description":"","title":"warehouse 3","__v":0},{"_id":"5c19cc362e23b10a6c156628","update":[],"create":{"by":"5bd6db911db5528939d673d3","date":"2018-12-19T04:42:30.672Z"},"enable":true,"support":[{"company":"5c0886aa354c4009a11d04c0","_id":"5c19cc362e23b10a6c156629","charged_warehouse":{"export_value":30,"daily_freight":30,"import_value":20}}],"partners":["5c0f7b7c047a360f78482f42"],"description":"","title":"Warehouse G","__v":0}]}] ResponseTime[38] -----

[2018-12-19 13:50:46:960] - info: ----- Start Client Request -----
[2018-12-19 13:50:46:960] - info: ----- incomming parameters Headers [{"host":"127.0.0.1:8080","connection":"keep-alive","accept":"application/json, text/plain, */*","origin":"http://localhost:4200","x_access_token":"5869330f4b11f17233b8fce4214eb64b13bb1840ce649e579e53515f87796bbe","authorization":"Bearer 5869330f4b11f17233b8fce4214eb64b13bb1840ce649e579e53515f87796bbe","user-agent":"Mozilla/5.0 (Macintosh; Intel Mac OS X 10_12_6) AppleWebKit/537.36 (KHTML, like Gecko) Chrome/71.0.3578.98 Safari/537.36","referer":"http://localhost:4200/store-product/store-product-by-company-warehouse/5c0886aa354c4009a11d04c0/5c0f7bf2047a360f78482f44","accept-encoding":"gzip, deflate, br","accept-language":"en-US,en;q=0.9"}] -----
[2018-12-19 13:50:46:960] - info: ----- incomming parameters Body [{}] -----
[2018-12-19 13:50:46:960] - info: ----- request ip [::ffff:127.0.0.1] -----
[2018-12-19 13:50:46:960] - info: ----- ResponseMessage["----- Request Error URL[/api/v1/management/product/partner/import] Status[{\"code\":40400,\"descriptionEn\":\"Unknow URL\",\"description\":\"ไม่รู้จัก URL นี้\"}] -----"] ResponseTime[0] -----

[2018-12-19 13:54:46:913] - info: ----- Start onProfile_Update -----
[2018-12-19 13:54:46:913] - info: ----- incomming parameters Headers [{"host":"127.0.0.1:8080","connection":"keep-alive","accept":"application/json, text/plain, */*","origin":"http://localhost:4200","x_access_token":"5869330f4b11f17233b8fce4214eb64b13bb1840ce649e579e53515f87796bbe","authorization":"Bearer 5869330f4b11f17233b8fce4214eb64b13bb1840ce649e579e53515f87796bbe","user-agent":"Mozilla/5.0 (Macintosh; Intel Mac OS X 10_12_6) AppleWebKit/537.36 (KHTML, like Gecko) Chrome/71.0.3578.98 Safari/537.36","referer":"http://localhost:4200/store-product/store-product-by-company-warehouse/5c0886aa354c4009a11d04c0/5c0f7bf2047a360f78482f44","accept-encoding":"gzip, deflate, br","accept-language":"en-US,en;q=0.9"}] -----
[2018-12-19 13:54:46:913] - info: ----- incomming parameters Body [{"server_by":"5bd6db911db5528939d673d3"}] -----
[2018-12-19 13:54:46:913] - info: ----- request ip [::ffff:127.0.0.1] -----
[2018-12-19 13:54:46:913] - info: ----- ResponseMessage[{"api_number":0,"code":20000,"message":{"en":"Success","th":"ทำรายการเรียบร้อย"},"__v":0,"data":{"_id":"5bd6db911db5528939d673d3","username":"saksith","enable":true,"userinfo":{"birthday":"2018-11-15T17:00:00.000Z","msisdn":"031232132","email":"saksithgmail.com","address":{"zipcode":"","address":"rrr"},"google_id":"atchara_google","facebook_id":"d","lineid":"l","card_id":"c","image_profile":"http://127.0.0.1:8080/images/profiles/1542256274471.jpg","lastname":"rittanasatheiyn","firstname":"Saksith"},"state":1,"status":1,"token_expired":1547288042635,"x_access_token":"5869330f4b11f17233b8fce4214eb64b13bb1840ce649e579e53515f87796bbe","usertype_id":[],"__v":0}}] ResponseTime[35] -----

[2018-12-19 13:54:46:957] - info: ----- Start onQuery_Store_Product -----
[2018-12-19 13:54:46:957] - info: ----- incomming parameters Headers [{"host":"127.0.0.1:8080","connection":"keep-alive","accept":"application/json, text/plain, */*","origin":"http://localhost:4200","x_access_token":"5869330f4b11f17233b8fce4214eb64b13bb1840ce649e579e53515f87796bbe","authorization":"Bearer 5869330f4b11f17233b8fce4214eb64b13bb1840ce649e579e53515f87796bbe","user-agent":"Mozilla/5.0 (Macintosh; Intel Mac OS X 10_12_6) AppleWebKit/537.36 (KHTML, like Gecko) Chrome/71.0.3578.98 Safari/537.36","referer":"http://localhost:4200/store-product/store-product-by-company-warehouse/5c0886aa354c4009a11d04c0/5c0f7bf2047a360f78482f44","accept-encoding":"gzip, deflate, br","accept-language":"en-US,en;q=0.9"}] -----
[2018-12-19 13:54:46:957] - info: ----- incomming parameters Body [{"server_by":"5bd6db911db5528939d673d3"}] -----
[2018-12-19 13:54:46:957] - info: ----- request ip [::ffff:127.0.0.1] -----
[2018-12-19 13:54:46:957] - info: ----- ResponseMessage[{"api_number":0,"code":20000,"message":{"en":"Success","th":"ทำรายการเรียบร้อย"},"__v":0,"data":[{"company":{"_id":"5c0886aa354c4009a11d04c0","image":null,"description":"บ. ไทยจีพีเอส","title":"Thai GPS"},"warehouse":{"_id":"5c0f7bf2047a360f78482f44","enable":true,"description":"","title":"Warehouse 1"},"serial_product":{"_id":"5c0f7c27047a360f78482f46","type":{"_id":"5c05e18caca7290a33d82517","enable":true,"description":"มีส่วนผสมของแอลกอฮอล์","title":"แอลกอฮอล์"},"enable":true,"image":null,"description":"","title":"เบียร์","serial_product":"1234"},"charged_warehouse":{"export_value":10,"daily_freight":10,"import_value":10},"__v":0,"total":2,"remain":1},{"company":{"_id":"5c0886aa354c4009a11d04c0","image":null,"description":"บ. ไทยจีพีเอส","title":"Thai GPS"},"warehouse":{"_id":"5c0f7bf2047a360f78482f44","enable":true,"description":"","title":"Warehouse 1"},"serial_product":{"_id":"5c0f7c6e047a360f78482f49","type":{"_id":"5bf5074050edaa20be9f5514","enable":true,"description":"Juice","title":"เครื่องดื่ม"},"enable":true,"image":null,"description":"","title":"ไมโล","serial_product":"5678"},"charged_warehouse":{"export_value":10,"daily_freight":10,"import_value":10},"__v":0,"total":1,"remain":1},{"company":{"_id":"5c0886aa354c4009a11d04c0","image":null,"description":"บ. ไทยจีพีเอส","title":"Thai GPS"},"warehouse":{"_id":"5c0f7bf2047a360f78482f44","enable":true,"description":"","title":"Warehouse 1"},"serial_product":{"_id":"5c0f7c6e047a360f78482f49","type":{"_id":"5bf5074050edaa20be9f5514","enable":true,"description":"Juice","title":"เครื่องดื่ม"},"enable":true,"image":null,"description":"","title":"ไมโล","serial_product":"5678"},"charged_warehouse":{"export_value":10,"daily_freight":10,"import_value":10},"__v":0,"total":1,"remain":0}]}] ResponseTime[77] -----

[2018-12-19 13:55:07:786] - info: ----- Start onQuery_Warehouses -----
[2018-12-19 13:55:07:786] - info: ----- incomming parameters Headers [{"host":"127.0.0.1:8080","connection":"keep-alive","accept":"application/json, text/plain, */*","origin":"http://localhost:4200","x_access_token":"5869330f4b11f17233b8fce4214eb64b13bb1840ce649e579e53515f87796bbe","authorization":"Bearer 5869330f4b11f17233b8fce4214eb64b13bb1840ce649e579e53515f87796bbe","user-agent":"Mozilla/5.0 (Macintosh; Intel Mac OS X 10_12_6) AppleWebKit/537.36 (KHTML, like Gecko) Chrome/71.0.3578.98 Safari/537.36","referer":"http://localhost:4200/store-product/store-product-by-company-warehouse/5c0886aa354c4009a11d04c0/5c0f7bf2047a360f78482f44","accept-encoding":"gzip, deflate, br","accept-language":"en-US,en;q=0.9"}] -----
[2018-12-19 13:55:07:786] - info: ----- incomming parameters Body [{"server_by":"5bd6db911db5528939d673d3"}] -----
[2018-12-19 13:55:07:786] - info: ----- request ip [::ffff:127.0.0.1] -----
[2018-12-19 13:55:07:787] - info: ----- ResponseMessage[{"api_number":0,"code":20000,"message":{"en":"Success","th":"ทำรายการเรียบร้อย"},"__v":0,"data":[{"_id":"5c0f7bf2047a360f78482f44","update":[],"create":{"by":"5bd6db911db5528939d673d3","date":"2018-12-11T08:57:22.086Z"},"enable":true,"support":[{"company":"5c0886aa354c4009a11d04c0","_id":"5c0f7bf2047a360f78482f45","charged_warehouse":{"export_value":10,"daily_freight":10,"import_value":10}}],"partners":["5c0f7b7c047a360f78482f42"],"description":"","title":"Warehouse 1","__v":0},{"_id":"5c0f8083047a360f78482f4c","update":[{"by":"5bd6db911db5528939d673d3","_id":"5c19bb552e23b10a6c156627","date":"2018-12-19T03:30:29.191Z"}],"create":{"by":"5bd6db911db5528939d673d3","date":"2018-12-11T09:16:51.163Z"},"enable":true,"support":[],"partners":["5c0f7b7c047a360f78482f42"],"description":"","title":"Warehouse 2","__v":0},{"_id":"5c1771048427b00a96c0c060","update":[{"by":"5bd6db911db5528939d673d3","_id":"5c19b5642e23b10a6c156625","date":"2018-12-19T03:05:08.054Z"},{"by":"5bd6db911db5528939d673d3","_id":"5c19b5882e23b10a6c156626","date":"2018-12-19T03:05:44.880Z"}],"create":{"by":"5bd6db911db5528939d673d3","date":"2018-12-17T09:48:52.782Z"},"enable":true,"support":[],"partners":["5c0f7b7c047a360f78482f42"],"description":"","title":"warehouse 3","__v":0},{"_id":"5c19cc362e23b10a6c156628","update":[],"create":{"by":"5bd6db911db5528939d673d3","date":"2018-12-19T04:42:30.672Z"},"enable":true,"support":[{"company":"5c0886aa354c4009a11d04c0","_id":"5c19cc362e23b10a6c156629","charged_warehouse":{"export_value":30,"daily_freight":30,"import_value":20}}],"partners":["5c0f7b7c047a360f78482f42"],"description":"","title":"Warehouse G","__v":0}]}] ResponseTime[33] -----

[2018-12-19 13:55:14:975] - info: ----- Start Client Request -----
[2018-12-19 13:55:14:975] - info: ----- incomming parameters Headers [{"host":"127.0.0.1:8080","connection":"keep-alive","accept":"application/json, text/plain, */*","origin":"http://localhost:4200","x_access_token":"5869330f4b11f17233b8fce4214eb64b13bb1840ce649e579e53515f87796bbe","authorization":"Bearer 5869330f4b11f17233b8fce4214eb64b13bb1840ce649e579e53515f87796bbe","user-agent":"Mozilla/5.0 (Macintosh; Intel Mac OS X 10_12_6) AppleWebKit/537.36 (KHTML, like Gecko) Chrome/71.0.3578.98 Safari/537.36","referer":"http://localhost:4200/store-product/store-product-by-company-warehouse/5c0886aa354c4009a11d04c0/5c0f7bf2047a360f78482f44","accept-encoding":"gzip, deflate, br","accept-language":"en-US,en;q=0.9"}] -----
[2018-12-19 13:55:14:975] - info: ----- incomming parameters Body [{}] -----
[2018-12-19 13:55:14:975] - info: ----- request ip [::ffff:127.0.0.1] -----
[2018-12-19 13:55:14:975] - info: ----- ResponseMessage["----- Request Error URL[/api/v1/management/product/partner/import] Status[{\"code\":40400,\"descriptionEn\":\"Unknow URL\",\"description\":\"ไม่รู้จัก URL นี้\"}] -----"] ResponseTime[0] -----

