[2018-12-12 16:33:23:843] - info: ----- Start onPartners -----
[2018-12-12 16:33:23:843] - info: ----- incomming parameters Headers [{"host":"127.0.0.1:8080","connection":"keep-alive","accept":"application/json, text/plain, */*","origin":"http://localhost:4200","x_access_token":"e0e4f0ff45b20e13768bc15abdfaf7f5e4ac8bf9aa2a6b2ba47943bb44b151ed","authorization":"Bearer e0e4f0ff45b20e13768bc15abdfaf7f5e4ac8bf9aa2a6b2ba47943bb44b151ed","user-agent":"Mozilla/5.0 (Macintosh; Intel Mac OS X 10_12_6) AppleWebKit/537.36 (KHTML, like Gecko) Chrome/71.0.3578.80 Safari/537.36","referer":"http://localhost:4200/company/company-list","accept-encoding":"gzip, deflate, br","accept-language":"en-US,en;q=0.9"}] -----
[2018-12-12 16:33:23:843] - info: ----- incomming parameters Body [{"server_by":"5bd6db911db5528939d673d3"}] -----
[2018-12-12 16:33:23:843] - info: ----- request ip [::ffff:127.0.0.1] -----
[2018-12-12 16:33:23:843] - info: ----- ResponseMessage[{"api_number":0,"code":20000,"message":{"en":"Success","th":"ทำรายการเรียบร้อย"},"__v":0,"data":[{"_id":"5c0886aa354c4009a11d04c0","update":[{"by":"5bd6db911db5528939d673d3","_id":"5c0887ba354c4009a11d04c2","date":"2018-12-06T02:21:46.624Z"}],"create":{"by":"5bd6db911db5528939d673d3","date":"2018-12-06T02:17:14.788Z"},"users":[{"by":{"_id":"5bd6db911db5528939d673d3","username":"saksith","enable":true,"userinfo":{"birthday":"2018-11-15T17:00:00.000Z","msisdn":"031232132","email":"saksithgmail.com","address":{"zipcode":"","address":"rrr"},"google_id":"atchara_google","facebook_id":"d","lineid":"l","card_id":"c","image_profile":"1542256274471.jpg","lastname":"rittanasatheiyn","firstname":"Saksith"}},"_id":"5c0886aa354c4009a11d04c1","status":false}],"enable":true,"contact":{"telephone":"098213212","email":"thigps@gmail.com","website":"asad","facebook":"sdas","line":"ff","long":"-1.1868724662435852","lat":"8.2127003874804","address":""},"image":null,"description":"บ. ไทยจีพีเอส","title":"Thai GPS","__v":0},{"_id":"5c089d4f80f4c30b1063e089","update":[],"create":{"by":"5be4034f8e85da0a1df938fe","date":"2018-12-06T03:53:51.637Z"},"users":[{"by":{"_id":"5be4034f8e85da0a1df938fe","username":"eye","enable":true,"userinfo":{"birthday":"1970-01-01T07:15:02.529Z","msisdn":"0636641641","email":"atchara2571@gmail.com","address":{"zipcode":"null","address":"null"},"google_id":"","facebook_id":"","lineid":"","card_id":"23432433123","image_profile":"","lastname":"Yawirach","firstname":"Atchara"}},"_id":"5c089d4f80f4c30b1063e08a","status":false}],"enable":true,"contact":{"telephone":"0986632121","email":"companyx@gmail.com","website":"","facebook":"","line":"","long":null,"lat":null,"address":""},"image":null,"description":"","title":"Company x","__v":0}]}] ResponseTime[58] -----

[2018-12-12 16:33:25:047] - info: ----- Start onPartners -----
[2018-12-12 16:33:25:047] - info: ----- incomming parameters Headers [{"host":"127.0.0.1:8080","connection":"keep-alive","accept":"application/json, text/plain, */*","origin":"http://localhost:4200","x_access_token":"e0e4f0ff45b20e13768bc15abdfaf7f5e4ac8bf9aa2a6b2ba47943bb44b151ed","authorization":"Bearer e0e4f0ff45b20e13768bc15abdfaf7f5e4ac8bf9aa2a6b2ba47943bb44b151ed","user-agent":"Mozilla/5.0 (Macintosh; Intel Mac OS X 10_12_6) AppleWebKit/537.36 (KHTML, like Gecko) Chrome/71.0.3578.80 Safari/537.36","referer":"http://localhost:4200/company/company-user-list/5c0886aa354c4009a11d04c0","accept-encoding":"gzip, deflate, br","accept-language":"en-US,en;q=0.9"}] -----
[2018-12-12 16:33:25:047] - info: ----- incomming parameters Body [{"server_by":"5bd6db911db5528939d673d3"}] -----
[2018-12-12 16:33:25:047] - info: ----- request ip [::ffff:127.0.0.1] -----
[2018-12-12 16:33:25:047] - info: ----- ResponseMessage[{"api_number":0,"code":20000,"message":{"en":"Success","th":"ทำรายการเรียบร้อย"},"__v":0,"data":[{"_id":"5c0886aa354c4009a11d04c0","update":[{"by":"5bd6db911db5528939d673d3","_id":"5c0887ba354c4009a11d04c2","date":"2018-12-06T02:21:46.624Z"}],"create":{"by":"5bd6db911db5528939d673d3","date":"2018-12-06T02:17:14.788Z"},"users":[{"by":{"_id":"5bd6db911db5528939d673d3","username":"saksith","enable":true,"userinfo":{"birthday":"2018-11-15T17:00:00.000Z","msisdn":"031232132","email":"saksithgmail.com","address":{"zipcode":"","address":"rrr"},"google_id":"atchara_google","facebook_id":"d","lineid":"l","card_id":"c","image_profile":"1542256274471.jpg","lastname":"rittanasatheiyn","firstname":"Saksith"}},"_id":"5c0886aa354c4009a11d04c1","status":false}],"enable":true,"contact":{"telephone":"098213212","email":"thigps@gmail.com","website":"asad","facebook":"sdas","line":"ff","long":"-1.1868724662435852","lat":"8.2127003874804","address":""},"image":null,"description":"บ. ไทยจีพีเอส","title":"Thai GPS","__v":0}]}] ResponseTime[60] -----

[2018-12-12 16:33:28:338] - info: ----- Start onPartners -----
[2018-12-12 16:33:28:338] - info: ----- incomming parameters Headers [{"host":"127.0.0.1:8080","connection":"keep-alive","accept":"application/json, text/plain, */*","origin":"http://localhost:4200","x_access_token":"e0e4f0ff45b20e13768bc15abdfaf7f5e4ac8bf9aa2a6b2ba47943bb44b151ed","authorization":"Bearer e0e4f0ff45b20e13768bc15abdfaf7f5e4ac8bf9aa2a6b2ba47943bb44b151ed","user-agent":"Mozilla/5.0 (Macintosh; Intel Mac OS X 10_12_6) AppleWebKit/537.36 (KHTML, like Gecko) Chrome/71.0.3578.80 Safari/537.36","referer":"http://localhost:4200/company/company-user-list/5c0886aa354c4009a11d04c0","accept-encoding":"gzip, deflate, br","accept-language":"en-US,en;q=0.9"}] -----
[2018-12-12 16:33:28:338] - info: ----- incomming parameters Body [{"server_by":"5bd6db911db5528939d673d3"}] -----
[2018-12-12 16:33:28:338] - info: ----- request ip [::ffff:127.0.0.1] -----
[2018-12-12 16:33:28:338] - info: ----- ResponseMessage[{"api_number":0,"code":20000,"message":{"en":"Success","th":"ทำรายการเรียบร้อย"},"__v":0,"data":[{"_id":"5c0886aa354c4009a11d04c0","update":[{"by":"5bd6db911db5528939d673d3","_id":"5c0887ba354c4009a11d04c2","date":"2018-12-06T02:21:46.624Z"}],"create":{"by":"5bd6db911db5528939d673d3","date":"2018-12-06T02:17:14.788Z"},"users":[{"by":{"_id":"5bd6db911db5528939d673d3","username":"saksith","enable":true,"userinfo":{"birthday":"2018-11-15T17:00:00.000Z","msisdn":"031232132","email":"saksithgmail.com","address":{"zipcode":"","address":"rrr"},"google_id":"atchara_google","facebook_id":"d","lineid":"l","card_id":"c","image_profile":"1542256274471.jpg","lastname":"rittanasatheiyn","firstname":"Saksith"}},"_id":"5c0886aa354c4009a11d04c1","status":false}],"enable":true,"contact":{"telephone":"098213212","email":"thigps@gmail.com","website":"asad","facebook":"sdas","line":"ff","long":"-1.1868724662435852","lat":"8.2127003874804","address":""},"image":null,"description":"บ. ไทยจีพีเอส","title":"Thai GPS","__v":0}]}] ResponseTime[52] -----

[2018-12-12 16:33:28:900] - info: ----- Start onPartners -----
[2018-12-12 16:33:28:900] - info: ----- incomming parameters Headers [{"host":"127.0.0.1:8080","connection":"keep-alive","accept":"application/json, text/plain, */*","origin":"http://localhost:4200","x_access_token":"e0e4f0ff45b20e13768bc15abdfaf7f5e4ac8bf9aa2a6b2ba47943bb44b151ed","authorization":"Bearer e0e4f0ff45b20e13768bc15abdfaf7f5e4ac8bf9aa2a6b2ba47943bb44b151ed","user-agent":"Mozilla/5.0 (Macintosh; Intel Mac OS X 10_12_6) AppleWebKit/537.36 (KHTML, like Gecko) Chrome/71.0.3578.80 Safari/537.36","referer":"http://localhost:4200/company/company-list","accept-encoding":"gzip, deflate, br","accept-language":"en-US,en;q=0.9"}] -----
[2018-12-12 16:33:28:900] - info: ----- incomming parameters Body [{"server_by":"5bd6db911db5528939d673d3"}] -----
[2018-12-12 16:33:28:900] - info: ----- request ip [::ffff:127.0.0.1] -----
[2018-12-12 16:33:28:900] - info: ----- ResponseMessage[{"api_number":0,"code":20000,"message":{"en":"Success","th":"ทำรายการเรียบร้อย"},"__v":0,"data":[{"_id":"5c0886aa354c4009a11d04c0","update":[{"by":"5bd6db911db5528939d673d3","_id":"5c0887ba354c4009a11d04c2","date":"2018-12-06T02:21:46.624Z"}],"create":{"by":"5bd6db911db5528939d673d3","date":"2018-12-06T02:17:14.788Z"},"users":[{"by":{"_id":"5bd6db911db5528939d673d3","username":"saksith","enable":true,"userinfo":{"birthday":"2018-11-15T17:00:00.000Z","msisdn":"031232132","email":"saksithgmail.com","address":{"zipcode":"","address":"rrr"},"google_id":"atchara_google","facebook_id":"d","lineid":"l","card_id":"c","image_profile":"1542256274471.jpg","lastname":"rittanasatheiyn","firstname":"Saksith"}},"_id":"5c0886aa354c4009a11d04c1","status":false}],"enable":true,"contact":{"telephone":"098213212","email":"thigps@gmail.com","website":"asad","facebook":"sdas","line":"ff","long":"-1.1868724662435852","lat":"8.2127003874804","address":""},"image":null,"description":"บ. ไทยจีพีเอส","title":"Thai GPS","__v":0},{"_id":"5c089d4f80f4c30b1063e089","update":[],"create":{"by":"5be4034f8e85da0a1df938fe","date":"2018-12-06T03:53:51.637Z"},"users":[{"by":{"_id":"5be4034f8e85da0a1df938fe","username":"eye","enable":true,"userinfo":{"birthday":"1970-01-01T07:15:02.529Z","msisdn":"0636641641","email":"atchara2571@gmail.com","address":{"zipcode":"null","address":"null"},"google_id":"","facebook_id":"","lineid":"","card_id":"23432433123","image_profile":"","lastname":"Yawirach","firstname":"Atchara"}},"_id":"5c089d4f80f4c30b1063e08a","status":false}],"enable":true,"contact":{"telephone":"0986632121","email":"companyx@gmail.com","website":"","facebook":"","line":"","long":null,"lat":null,"address":""},"image":null,"description":"","title":"Company x","__v":0}]}] ResponseTime[59] -----

[2018-12-12 16:33:32:411] - info: ----- Start onPartners -----
[2018-12-12 16:33:32:411] - info: ----- incomming parameters Headers [{"host":"127.0.0.1:8080","connection":"keep-alive","accept":"application/json, text/plain, */*","origin":"http://localhost:4200","x_access_token":"e0e4f0ff45b20e13768bc15abdfaf7f5e4ac8bf9aa2a6b2ba47943bb44b151ed","authorization":"Bearer e0e4f0ff45b20e13768bc15abdfaf7f5e4ac8bf9aa2a6b2ba47943bb44b151ed","user-agent":"Mozilla/5.0 (Macintosh; Intel Mac OS X 10_12_6) AppleWebKit/537.36 (KHTML, like Gecko) Chrome/71.0.3578.80 Safari/537.36","referer":"http://localhost:4200/partner/partner-list","accept-encoding":"gzip, deflate, br","accept-language":"en-US,en;q=0.9"}] -----
[2018-12-12 16:33:32:411] - info: ----- incomming parameters Body [{"server_by":"5bd6db911db5528939d673d3"}] -----
[2018-12-12 16:33:32:411] - info: ----- request ip [::ffff:127.0.0.1] -----
[2018-12-12 16:33:32:411] - info: ----- ResponseMessage[{"api_number":0,"code":20000,"message":{"en":"Success","th":"ทำรายการเรียบร้อย"},"__v":0,"data":[{"_id":"5c0886aa354c4009a11d04c0","update":[{"by":"5bd6db911db5528939d673d3","_id":"5c0887ba354c4009a11d04c2","date":"2018-12-06T02:21:46.624Z"}],"create":{"by":"5bd6db911db5528939d673d3","date":"2018-12-06T02:17:14.788Z"},"users":[{"by":{"_id":"5bd6db911db5528939d673d3","username":"saksith","enable":true,"userinfo":{"birthday":"2018-11-15T17:00:00.000Z","msisdn":"031232132","email":"saksithgmail.com","address":{"zipcode":"","address":"rrr"},"google_id":"atchara_google","facebook_id":"d","lineid":"l","card_id":"c","image_profile":"1542256274471.jpg","lastname":"rittanasatheiyn","firstname":"Saksith"}},"_id":"5c0886aa354c4009a11d04c1","status":false}],"enable":true,"contact":{"telephone":"098213212","email":"thigps@gmail.com","website":"asad","facebook":"sdas","line":"ff","long":"-1.1868724662435852","lat":"8.2127003874804","address":""},"image":null,"description":"บ. ไทยจีพีเอส","title":"Thai GPS","__v":0}]}] ResponseTime[52] -----

[2018-12-12 16:33:32:496] - info: ----- Start onPartners -----
[2018-12-12 16:33:32:496] - info: ----- incomming parameters Headers [{"host":"127.0.0.1:8080","connection":"keep-alive","accept":"application/json, text/plain, */*","origin":"http://localhost:4200","x_access_token":"e0e4f0ff45b20e13768bc15abdfaf7f5e4ac8bf9aa2a6b2ba47943bb44b151ed","authorization":"Bearer e0e4f0ff45b20e13768bc15abdfaf7f5e4ac8bf9aa2a6b2ba47943bb44b151ed","user-agent":"Mozilla/5.0 (Macintosh; Intel Mac OS X 10_12_6) AppleWebKit/537.36 (KHTML, like Gecko) Chrome/71.0.3578.80 Safari/537.36","referer":"http://localhost:4200/partner/partner-list","accept-encoding":"gzip, deflate, br","accept-language":"en-US,en;q=0.9"}] -----
[2018-12-12 16:33:32:496] - info: ----- incomming parameters Body [{"server_by":"5bd6db911db5528939d673d3"}] -----
[2018-12-12 16:33:32:496] - info: ----- request ip [::ffff:127.0.0.1] -----
[2018-12-12 16:33:32:496] - info: ----- ResponseMessage[{"api_number":0,"code":20000,"message":{"en":"Success","th":"ทำรายการเรียบร้อย"},"__v":0,"data":[{"_id":"5c0f7b7c047a360f78482f42","company":"5c0886aa354c4009a11d04c0","update":[],"create":{"by":"5bd6db911db5528939d673d3","date":"2018-12-11T08:55:24.629Z"},"users":[{"by":"5bd6db911db5528939d673d3","_id":"5c0f7b7c047a360f78482f43"}],"enable":true,"invoice":[],"contact":{"long":null,"lat":null,"address":"","email":"","msisdn":"","name":"Partner one"},"title":"Partner 1","__v":0}]}] ResponseTime[35] -----

[2018-12-12 16:33:36:100] - info: ----- Start onQuery_Product_Serials -----
[2018-12-12 16:33:36:100] - info: ----- incomming parameters Headers [{"host":"127.0.0.1:8080","connection":"keep-alive","accept":"application/json, text/plain, */*","origin":"http://localhost:4200","x_access_token":"e0e4f0ff45b20e13768bc15abdfaf7f5e4ac8bf9aa2a6b2ba47943bb44b151ed","authorization":"Bearer e0e4f0ff45b20e13768bc15abdfaf7f5e4ac8bf9aa2a6b2ba47943bb44b151ed","user-agent":"Mozilla/5.0 (Macintosh; Intel Mac OS X 10_12_6) AppleWebKit/537.36 (KHTML, like Gecko) Chrome/71.0.3578.80 Safari/537.36","referer":"http://localhost:4200/product/product-list","accept-encoding":"gzip, deflate, br","accept-language":"en-US,en;q=0.9"}] -----
[2018-12-12 16:33:36:100] - info: ----- incomming parameters Body [{"server_by":"5bd6db911db5528939d673d3"}] -----
[2018-12-12 16:33:36:100] - info: ----- request ip [::ffff:127.0.0.1] -----
[2018-12-12 16:33:36:100] - info: ----- ResponseMessage[{"api_number":0,"code":20000,"message":{"en":"Success","th":"ทำรายการเรียบร้อย"},"__v":0,"data":[{"_id":"5c0f7c27047a360f78482f46","company":"5c0886aa354c4009a11d04c0","type":{"_id":"5c05e18caca7290a33d82517","enable":true,"description":"มีส่วนผสมของแอลกอฮอล์","title":"แอลกอฮอล์"},"update":[],"create":{"by":"5bd6db911db5528939d673d3","date":"2018-12-11T08:58:15.952Z"},"enable":true,"image":null,"description":"","title":"เบียร์","serial_product":"1234","dimension":{"description":0,"height":0,"long":0,"width":0},"support":[{"partners":{"_id":"5c0f7b7c047a360f78482f42","enable":true,"invoice":[],"contact":{"long":null,"lat":null,"address":"","email":"","msisdn":"","name":"Partner one"},"title":"Partner 1"},"_id":"5c0f7c27047a360f78482f47","charged_product":{"transportation":0,"export_value":20,"daily_freight":20,"import_value":20}}],"__v":0},{"_id":"5c0f7c6e047a360f78482f49","company":"5c0886aa354c4009a11d04c0","type":{"_id":"5bf5074050edaa20be9f5514","enable":true,"description":"Juice","title":"เครื่องดื่ม"},"update":[],"create":{"by":"5bd6db911db5528939d673d3","date":"2018-12-11T08:59:26.824Z"},"enable":true,"image":null,"description":"","title":"ไมโล","serial_product":"5678","dimension":{"description":0,"height":0,"long":0,"width":0},"support":[{"partners":{"_id":"5c0f7b7c047a360f78482f42","enable":true,"invoice":[],"contact":{"long":null,"lat":null,"address":"","email":"","msisdn":"","name":"Partner one"},"title":"Partner 1"},"_id":"5c0f7c6e047a360f78482f4a","charged_product":{"transportation":0,"export_value":30,"daily_freight":30,"import_value":30}}],"__v":0}]}] ResponseTime[61] -----

[2018-12-12 16:33:44:758] - info: ----- Start onProfile_Update -----
[2018-12-12 16:33:44:758] - info: ----- incomming parameters Headers [{"host":"127.0.0.1:8080","connection":"keep-alive","accept":"application/json, text/plain, */*","origin":"http://localhost:4200","x_access_token":"e0e4f0ff45b20e13768bc15abdfaf7f5e4ac8bf9aa2a6b2ba47943bb44b151ed","authorization":"Bearer e0e4f0ff45b20e13768bc15abdfaf7f5e4ac8bf9aa2a6b2ba47943bb44b151ed","user-agent":"Mozilla/5.0 (Macintosh; Intel Mac OS X 10_12_6) AppleWebKit/537.36 (KHTML, like Gecko) Chrome/71.0.3578.80 Safari/537.36","referer":"http://localhost:4200/profile","accept-encoding":"gzip, deflate, br","accept-language":"en-US,en;q=0.9"}] -----
[2018-12-12 16:33:44:758] - info: ----- incomming parameters Body [{"server_by":"5bd6db911db5528939d673d3"}] -----
[2018-12-12 16:33:44:758] - info: ----- request ip [::ffff:127.0.0.1] -----
[2018-12-12 16:33:44:758] - info: ----- ResponseMessage[{"api_number":0,"code":20000,"message":{"en":"Success","th":"ทำรายการเรียบร้อย"},"__v":0,"data":{"_id":"5bd6db911db5528939d673d3","username":"saksith","enable":true,"userinfo":{"birthday":"2018-11-15T17:00:00.000Z","msisdn":"031232132","email":"saksithgmail.com","address":{"zipcode":"","address":"rrr"},"google_id":"atchara_google","facebook_id":"d","lineid":"l","card_id":"c","image_profile":"http://127.0.0.1:8080/images/profiles/1542256274471.jpg","lastname":"rittanasatheiyn","firstname":"Saksith"},"state":1,"status":1,"token_expired":1547191716463,"x_access_token":"e0e4f0ff45b20e13768bc15abdfaf7f5e4ac8bf9aa2a6b2ba47943bb44b151ed","usertype_id":[],"__v":0}}] ResponseTime[34] -----

[2018-12-12 16:33:55:476] - info: ----- Start onProfile_Update -----
[2018-12-12 16:33:55:476] - info: ----- incomming parameters Headers [{"host":"127.0.0.1:8080","connection":"keep-alive","content-length":"1055","accept":"application/json, text/plain, */*","origin":"http://localhost:4200","x_access_token":"e0e4f0ff45b20e13768bc15abdfaf7f5e4ac8bf9aa2a6b2ba47943bb44b151ed","authorization":"Bearer e0e4f0ff45b20e13768bc15abdfaf7f5e4ac8bf9aa2a6b2ba47943bb44b151ed","user-agent":"Mozilla/5.0 (Macintosh; Intel Mac OS X 10_12_6) AppleWebKit/537.36 (KHTML, like Gecko) Chrome/71.0.3578.80 Safari/537.36","content-type":"multipart/form-data; boundary=----WebKitFormBoundaryKqgyovFenxaziwni","referer":"http://localhost:4200/profile","accept-encoding":"gzip, deflate, br","accept-language":"en-US,en;q=0.9"}] -----
[2018-12-12 16:33:55:476] - info: ----- incomming parameters Body [{"firstname":"Saksith","lastname":"rittanasatheiyn","birthday":"2018-11-15T17:00:00.000Z","email":"saksithgmail.com","address":"rrr","zipcode":"","card_id":"c","lineid":"l","facebook_id":"d","image":""}] -----
[2018-12-12 16:33:55:476] - info: ----- request ip [::ffff:127.0.0.1] -----
[2018-12-12 16:33:55:476] - info: ----- ResponseMessage[{"api_number":0,"code":20000,"message":{"en":"Success","th":"ทำรายการเรียบร้อย"},"__v":0,"data":{"_id":"5bd6db911db5528939d673d3","username":"saksith","enable":true,"userinfo":{"birthday":"2018-11-15T17:00:00.000Z","msisdn":"031232132","email":"saksithgmail.com","address":{"zipcode":"","address":"rrr"},"google_id":"atchara_google","facebook_id":"d","lineid":"l","card_id":"c","image_profile":"http://127.0.0.1:8080/images/profiles/1542256274471.jpg","lastname":"rittanasatheiyn","firstname":"Saksith"},"state":1,"status":1,"token_expired":1547191716463,"x_access_token":"e0e4f0ff45b20e13768bc15abdfaf7f5e4ac8bf9aa2a6b2ba47943bb44b151ed","usertype_id":[],"__v":0}}] ResponseTime[767] -----

[2018-12-12 16:34:05:397] - info: ----- Start onProfile_Update -----
[2018-12-12 16:34:05:397] - info: ----- incomming parameters Headers [{"host":"127.0.0.1:8080","connection":"keep-alive","accept":"application/json, text/plain, */*","origin":"http://localhost:4200","x_access_token":"e0e4f0ff45b20e13768bc15abdfaf7f5e4ac8bf9aa2a6b2ba47943bb44b151ed","authorization":"Bearer e0e4f0ff45b20e13768bc15abdfaf7f5e4ac8bf9aa2a6b2ba47943bb44b151ed","user-agent":"Mozilla/5.0 (Macintosh; Intel Mac OS X 10_12_6) AppleWebKit/537.36 (KHTML, like Gecko) Chrome/71.0.3578.80 Safari/537.36","referer":"http://localhost:4200/profile","accept-encoding":"gzip, deflate, br","accept-language":"en-US,en;q=0.9"}] -----
[2018-12-12 16:34:05:397] - info: ----- incomming parameters Body [{"server_by":"5bd6db911db5528939d673d3"}] -----
[2018-12-12 16:34:05:397] - info: ----- request ip [::ffff:127.0.0.1] -----
[2018-12-12 16:34:05:397] - info: ----- ResponseMessage[{"api_number":0,"code":20000,"message":{"en":"Success","th":"ทำรายการเรียบร้อย"},"__v":0,"data":{"_id":"5bd6db911db5528939d673d3","username":"saksith","enable":true,"userinfo":{"birthday":"2018-11-15T17:00:00.000Z","msisdn":"031232132","email":"saksithgmail.com","address":{"zipcode":"","address":"rrr"},"google_id":"atchara_google","facebook_id":"d","lineid":"l","card_id":"c","image_profile":"http://127.0.0.1:8080/images/profiles/1542256274471.jpg","lastname":"rittanasatheiyn","firstname":"Saksith"},"state":1,"status":1,"token_expired":1547191716463,"x_access_token":"e0e4f0ff45b20e13768bc15abdfaf7f5e4ac8bf9aa2a6b2ba47943bb44b151ed","usertype_id":[],"__v":0}}] ResponseTime[37] -----

[2018-12-12 16:34:05:566] - info: ----- Start onProfile_Update -----
[2018-12-12 16:34:05:566] - info: ----- incomming parameters Headers [{"host":"127.0.0.1:8080","connection":"keep-alive","accept":"application/json, text/plain, */*","origin":"http://localhost:4200","x_access_token":"e0e4f0ff45b20e13768bc15abdfaf7f5e4ac8bf9aa2a6b2ba47943bb44b151ed","authorization":"Bearer e0e4f0ff45b20e13768bc15abdfaf7f5e4ac8bf9aa2a6b2ba47943bb44b151ed","user-agent":"Mozilla/5.0 (Macintosh; Intel Mac OS X 10_12_6) AppleWebKit/537.36 (KHTML, like Gecko) Chrome/71.0.3578.80 Safari/537.36","referer":"http://localhost:4200/profile","accept-encoding":"gzip, deflate, br","accept-language":"en-US,en;q=0.9"}] -----
[2018-12-12 16:34:05:566] - info: ----- incomming parameters Body [{"server_by":"5bd6db911db5528939d673d3"}] -----
[2018-12-12 16:34:05:566] - info: ----- request ip [::ffff:127.0.0.1] -----
[2018-12-12 16:34:05:566] - info: ----- ResponseMessage[{"api_number":0,"code":20000,"message":{"en":"Success","th":"ทำรายการเรียบร้อย"},"__v":0,"data":{"_id":"5bd6db911db5528939d673d3","username":"saksith","enable":true,"userinfo":{"birthday":"2018-11-15T17:00:00.000Z","msisdn":"031232132","email":"saksithgmail.com","address":{"zipcode":"","address":"rrr"},"google_id":"atchara_google","facebook_id":"d","lineid":"l","card_id":"c","image_profile":"http://127.0.0.1:8080/images/profiles/1542256274471.jpg","lastname":"rittanasatheiyn","firstname":"Saksith"},"state":1,"status":1,"token_expired":1547191716463,"x_access_token":"e0e4f0ff45b20e13768bc15abdfaf7f5e4ac8bf9aa2a6b2ba47943bb44b151ed","usertype_id":[],"__v":0}}] ResponseTime[34] -----

[2018-12-12 16:34:10:203] - info: ----- Start onPartners -----
[2018-12-12 16:34:10:203] - info: ----- incomming parameters Headers [{"host":"127.0.0.1:8080","connection":"keep-alive","accept":"application/json, text/plain, */*","origin":"http://localhost:4200","x_access_token":"e0e4f0ff45b20e13768bc15abdfaf7f5e4ac8bf9aa2a6b2ba47943bb44b151ed","authorization":"Bearer e0e4f0ff45b20e13768bc15abdfaf7f5e4ac8bf9aa2a6b2ba47943bb44b151ed","user-agent":"Mozilla/5.0 (Macintosh; Intel Mac OS X 10_12_6) AppleWebKit/537.36 (KHTML, like Gecko) Chrome/71.0.3578.80 Safari/537.36","referer":"http://localhost:4200/company/company-list","accept-encoding":"gzip, deflate, br","accept-language":"en-US,en;q=0.9"}] -----
[2018-12-12 16:34:10:203] - info: ----- incomming parameters Body [{"server_by":"5bd6db911db5528939d673d3"}] -----
[2018-12-12 16:34:10:203] - info: ----- request ip [::ffff:127.0.0.1] -----
[2018-12-12 16:34:10:203] - info: ----- ResponseMessage[{"api_number":0,"code":20000,"message":{"en":"Success","th":"ทำรายการเรียบร้อย"},"__v":0,"data":[{"_id":"5c0886aa354c4009a11d04c0","update":[{"by":"5bd6db911db5528939d673d3","_id":"5c0887ba354c4009a11d04c2","date":"2018-12-06T02:21:46.624Z"}],"create":{"by":"5bd6db911db5528939d673d3","date":"2018-12-06T02:17:14.788Z"},"users":[{"by":{"_id":"5bd6db911db5528939d673d3","username":"saksith","enable":true,"userinfo":{"birthday":"2018-11-15T17:00:00.000Z","msisdn":"031232132","email":"saksithgmail.com","address":{"zipcode":"","address":"rrr"},"google_id":"atchara_google","facebook_id":"d","lineid":"l","card_id":"c","image_profile":"1542256274471.jpg","lastname":"rittanasatheiyn","firstname":"Saksith"}},"_id":"5c0886aa354c4009a11d04c1","status":false}],"enable":true,"contact":{"telephone":"098213212","email":"thigps@gmail.com","website":"asad","facebook":"sdas","line":"ff","long":"-1.1868724662435852","lat":"8.2127003874804","address":""},"image":null,"description":"บ. ไทยจีพีเอส","title":"Thai GPS","__v":0},{"_id":"5c089d4f80f4c30b1063e089","update":[],"create":{"by":"5be4034f8e85da0a1df938fe","date":"2018-12-06T03:53:51.637Z"},"users":[{"by":{"_id":"5be4034f8e85da0a1df938fe","username":"eye","enable":true,"userinfo":{"birthday":"1970-01-01T07:15:02.529Z","msisdn":"0636641641","email":"atchara2571@gmail.com","address":{"zipcode":"null","address":"null"},"google_id":"","facebook_id":"","lineid":"","card_id":"23432433123","image_profile":"","lastname":"Yawirach","firstname":"Atchara"}},"_id":"5c089d4f80f4c30b1063e08a","status":false}],"enable":true,"contact":{"telephone":"0986632121","email":"companyx@gmail.com","website":"","facebook":"","line":"","long":null,"lat":null,"address":""},"image":null,"description":"","title":"Company x","__v":0}]}] ResponseTime[120] -----

[2018-12-12 16:35:33:378] - info: ----- Start onPartners -----
[2018-12-12 16:35:33:378] - info: ----- incomming parameters Headers [{"host":"127.0.0.1:8080","connection":"keep-alive","accept":"application/json, text/plain, */*","origin":"http://localhost:4200","x_access_token":"e0e4f0ff45b20e13768bc15abdfaf7f5e4ac8bf9aa2a6b2ba47943bb44b151ed","authorization":"Bearer e0e4f0ff45b20e13768bc15abdfaf7f5e4ac8bf9aa2a6b2ba47943bb44b151ed","user-agent":"Mozilla/5.0 (Macintosh; Intel Mac OS X 10_12_6) AppleWebKit/537.36 (KHTML, like Gecko) Chrome/71.0.3578.80 Safari/537.36","referer":"http://localhost:4200/warehouse/warehouse-by-company","accept-encoding":"gzip, deflate, br","accept-language":"en-US,en;q=0.9"}] -----
[2018-12-12 16:35:33:378] - info: ----- incomming parameters Body [{"server_by":"5bd6db911db5528939d673d3"}] -----
[2018-12-12 16:35:33:378] - info: ----- request ip [::ffff:127.0.0.1] -----
[2018-12-12 16:35:33:378] - info: ----- ResponseMessage[{"api_number":0,"code":20000,"message":{"en":"Success","th":"ทำรายการเรียบร้อย"},"__v":0,"data":[{"_id":"5c0886aa354c4009a11d04c0","update":[{"by":"5bd6db911db5528939d673d3","_id":"5c0887ba354c4009a11d04c2","date":"2018-12-06T02:21:46.624Z"}],"create":{"by":"5bd6db911db5528939d673d3","date":"2018-12-06T02:17:14.788Z"},"users":[{"by":{"_id":"5bd6db911db5528939d673d3","username":"saksith","enable":true,"userinfo":{"birthday":"2018-11-15T17:00:00.000Z","msisdn":"031232132","email":"saksithgmail.com","address":{"zipcode":"","address":"rrr"},"google_id":"atchara_google","facebook_id":"d","lineid":"l","card_id":"c","image_profile":"1542256274471.jpg","lastname":"rittanasatheiyn","firstname":"Saksith"}},"_id":"5c0886aa354c4009a11d04c1","status":false}],"enable":true,"contact":{"telephone":"098213212","email":"thigps@gmail.com","website":"asad","facebook":"sdas","line":"ff","long":"-1.1868724662435852","lat":"8.2127003874804","address":""},"image":null,"description":"บ. ไทยจีพีเอส","title":"Thai GPS","__v":0}]}] ResponseTime[58] -----

[2018-12-12 16:35:33:524] - info: ----- Start onQuery_WarehouseByCompanyId -----
[2018-12-12 16:35:33:524] - info: ----- incomming parameters Headers [{"host":"127.0.0.1:8080","connection":"keep-alive","accept":"application/json, text/plain, */*","origin":"http://localhost:4200","x_access_token":"e0e4f0ff45b20e13768bc15abdfaf7f5e4ac8bf9aa2a6b2ba47943bb44b151ed","authorization":"Bearer e0e4f0ff45b20e13768bc15abdfaf7f5e4ac8bf9aa2a6b2ba47943bb44b151ed","user-agent":"Mozilla/5.0 (Macintosh; Intel Mac OS X 10_12_6) AppleWebKit/537.36 (KHTML, like Gecko) Chrome/71.0.3578.80 Safari/537.36","referer":"http://localhost:4200/warehouse/warehouse-by-company","accept-encoding":"gzip, deflate, br","accept-language":"en-US,en;q=0.9"}] -----
[2018-12-12 16:35:33:524] - info: ----- incomming parameters Body [{"server_by":"5bd6db911db5528939d673d3"}] -----
[2018-12-12 16:35:33:524] - info: ----- request ip [::ffff:127.0.0.1] -----
[2018-12-12 16:35:33:524] - info: ----- ResponseMessage[{"api_number":0,"code":20000,"message":{"en":"Success","th":"ทำรายการเรียบร้อย"},"__v":0,"data":[{"_id":"5c0f7bf2047a360f78482f44","update":[],"create":{"by":"5bd6db911db5528939d673d3","date":"2018-12-11T08:57:22.086Z"},"enable":true,"support":[{"company":"5c0886aa354c4009a11d04c0","_id":"5c0f7bf2047a360f78482f45","charged_warehouse":{"export_value":10,"daily_freight":10,"import_value":10}}],"partners":[{"_id":"5c0f7b7c047a360f78482f42","enable":true,"invoice":[],"contact":{"long":null,"lat":null,"address":"","email":"","msisdn":"","name":"Partner one"},"title":"Partner 1"}],"description":"","title":"Warehouse 1","__v":0},{"_id":"5c0f8083047a360f78482f4c","update":[],"create":{"by":"5bd6db911db5528939d673d3","date":"2018-12-11T09:16:51.163Z"},"enable":true,"support":[{"company":"5c0886aa354c4009a11d04c0","_id":"5c0f8083047a360f78482f4d","charged_warehouse":{"export_value":40,"daily_freight":40,"import_value":30}}],"partners":[{"_id":"5c0f7b7c047a360f78482f42","enable":true,"invoice":[],"contact":{"long":null,"lat":null,"address":"","email":"","msisdn":"","name":"Partner one"},"title":"Partner 1"}],"description":"","title":"Warehouse 2","__v":0}]}] ResponseTime[79] -----

[2018-12-12 16:35:33:645] - info: ----- Start onQuery_Store_Product -----
[2018-12-12 16:35:33:645] - info: ----- incomming parameters Headers [{"host":"127.0.0.1:8080","connection":"keep-alive","accept":"application/json, text/plain, */*","origin":"http://localhost:4200","x_access_token":"e0e4f0ff45b20e13768bc15abdfaf7f5e4ac8bf9aa2a6b2ba47943bb44b151ed","authorization":"Bearer e0e4f0ff45b20e13768bc15abdfaf7f5e4ac8bf9aa2a6b2ba47943bb44b151ed","user-agent":"Mozilla/5.0 (Macintosh; Intel Mac OS X 10_12_6) AppleWebKit/537.36 (KHTML, like Gecko) Chrome/71.0.3578.80 Safari/537.36","referer":"http://localhost:4200/warehouse/warehouse-by-company","accept-encoding":"gzip, deflate, br","accept-language":"en-US,en;q=0.9"}] -----
[2018-12-12 16:35:33:645] - info: ----- incomming parameters Body [{"server_by":"5bd6db911db5528939d673d3"}] -----
[2018-12-12 16:35:33:645] - info: ----- request ip [::ffff:127.0.0.1] -----
[2018-12-12 16:35:33:645] - info: ----- ResponseMessage[{"api_number":0,"code":20000,"message":{"en":"Success","th":"ทำรายการเรียบร้อย"},"__v":0,"data":[{"company":{"_id":"5c0886aa354c4009a11d04c0","image":null,"description":"บ. ไทยจีพีเอส","title":"Thai GPS"},"warehouse":{"_id":"5c0f7bf2047a360f78482f44","enable":true,"description":"","title":"Warehouse 1"},"serial_product":{"_id":"5c0f7c27047a360f78482f46","type":{"_id":"5c05e18caca7290a33d82517","enable":true,"description":"มีส่วนผสมของแอลกอฮอล์","title":"แอลกอฮอล์"},"enable":true,"image":null,"description":"","title":"เบียร์","serial_product":"1234"},"charged_warehouse":{"export_value":10,"daily_freight":10,"import_value":10},"__v":0,"total":2,"remain":0},{"company":{"_id":"5c0886aa354c4009a11d04c0","image":null,"description":"บ. ไทยจีพีเอส","title":"Thai GPS"},"warehouse":{"_id":"5c0f7bf2047a360f78482f44","enable":true,"description":"","title":"Warehouse 1"},"serial_product":{"_id":"5c0f7c6e047a360f78482f49","type":{"_id":"5bf5074050edaa20be9f5514","enable":true,"description":"Juice","title":"เครื่องดื่ม"},"enable":true,"image":null,"description":"","title":"ไมโล","serial_product":"5678"},"charged_warehouse":{"export_value":10,"daily_freight":10,"import_value":10},"__v":0,"total":1,"remain":0}]}] ResponseTime[79] -----

[2018-12-12 16:35:33:765] - info: ----- Start onQuery_Store_Product -----
[2018-12-12 16:35:33:765] - info: ----- incomming parameters Headers [{"host":"127.0.0.1:8080","connection":"keep-alive","accept":"application/json, text/plain, */*","origin":"http://localhost:4200","x_access_token":"e0e4f0ff45b20e13768bc15abdfaf7f5e4ac8bf9aa2a6b2ba47943bb44b151ed","authorization":"Bearer e0e4f0ff45b20e13768bc15abdfaf7f5e4ac8bf9aa2a6b2ba47943bb44b151ed","user-agent":"Mozilla/5.0 (Macintosh; Intel Mac OS X 10_12_6) AppleWebKit/537.36 (KHTML, like Gecko) Chrome/71.0.3578.80 Safari/537.36","referer":"http://localhost:4200/warehouse/warehouse-by-company","accept-encoding":"gzip, deflate, br","accept-language":"en-US,en;q=0.9"}] -----
[2018-12-12 16:35:33:765] - info: ----- incomming parameters Body [{"server_by":"5bd6db911db5528939d673d3"}] -----
[2018-12-12 16:35:33:765] - info: ----- request ip [::ffff:127.0.0.1] -----
[2018-12-12 16:35:33:765] - info: ----- ResponseMessage[{"api_number":0,"code":20000,"message":{"en":"Success","th":"ทำรายการเรียบร้อย"},"__v":0,"data":[{"company":{"_id":"5c0886aa354c4009a11d04c0","image":null,"description":"บ. ไทยจีพีเอส","title":"Thai GPS"},"warehouse":{"_id":"5c0f8083047a360f78482f4c","enable":true,"description":"","title":"Warehouse 2"},"serial_product":{"_id":"5c0f7c27047a360f78482f46","type":{"_id":"5c05e18caca7290a33d82517","enable":true,"description":"มีส่วนผสมของแอลกอฮอล์","title":"แอลกอฮอล์"},"enable":true,"image":null,"description":"","title":"เบียร์","serial_product":"1234"},"charged_warehouse":{"export_value":10,"daily_freight":10,"import_value":10},"__v":0,"total":1,"remain":0}]}] ResponseTime[74] -----

[2018-12-12 16:36:00:431] - info: ----- Start onPartners -----
[2018-12-12 16:36:00:431] - info: ----- incomming parameters Headers [{"host":"127.0.0.1:8080","connection":"keep-alive","accept":"application/json, text/plain, */*","origin":"http://localhost:4200","x_access_token":"e0e4f0ff45b20e13768bc15abdfaf7f5e4ac8bf9aa2a6b2ba47943bb44b151ed","authorization":"Bearer e0e4f0ff45b20e13768bc15abdfaf7f5e4ac8bf9aa2a6b2ba47943bb44b151ed","user-agent":"Mozilla/5.0 (Macintosh; Intel Mac OS X 10_12_6) AppleWebKit/537.36 (KHTML, like Gecko) Chrome/71.0.3578.80 Safari/537.36","referer":"http://localhost:4200/company/company-create","accept-encoding":"gzip, deflate, br","accept-language":"en-US,en;q=0.9"}] -----
[2018-12-12 16:36:00:431] - info: ----- incomming parameters Body [{"server_by":"5bd6db911db5528939d673d3"}] -----
[2018-12-12 16:36:00:431] - info: ----- request ip [::ffff:127.0.0.1] -----
[2018-12-12 16:36:00:431] - info: ----- ResponseMessage[{"api_number":0,"code":20000,"message":{"en":"Success","th":"ทำรายการเรียบร้อย"},"__v":0,"data":[{"_id":"5c0886aa354c4009a11d04c0","update":[{"by":"5bd6db911db5528939d673d3","_id":"5c0887ba354c4009a11d04c2","date":"2018-12-06T02:21:46.624Z"}],"create":{"by":"5bd6db911db5528939d673d3","date":"2018-12-06T02:17:14.788Z"},"users":[{"by":{"_id":"5bd6db911db5528939d673d3","username":"saksith","enable":true,"userinfo":{"birthday":"2018-11-15T17:00:00.000Z","msisdn":"031232132","email":"saksithgmail.com","address":{"zipcode":"","address":"rrr"},"google_id":"atchara_google","facebook_id":"d","lineid":"l","card_id":"c","image_profile":"1542256274471.jpg","lastname":"rittanasatheiyn","firstname":"Saksith"}},"_id":"5c0886aa354c4009a11d04c1","status":false}],"enable":true,"contact":{"telephone":"098213212","email":"thigps@gmail.com","website":"asad","facebook":"sdas","line":"ff","long":"-1.1868724662435852","lat":"8.2127003874804","address":""},"image":null,"description":"บ. ไทยจีพีเอส","title":"Thai GPS","__v":0}]}] ResponseTime[58] -----

[2018-12-12 16:36:01:572] - info: ----- Start onPartners -----
[2018-12-12 16:36:01:572] - info: ----- incomming parameters Headers [{"host":"127.0.0.1:8080","connection":"keep-alive","accept":"application/json, text/plain, */*","origin":"http://localhost:4200","x_access_token":"e0e4f0ff45b20e13768bc15abdfaf7f5e4ac8bf9aa2a6b2ba47943bb44b151ed","authorization":"Bearer e0e4f0ff45b20e13768bc15abdfaf7f5e4ac8bf9aa2a6b2ba47943bb44b151ed","user-agent":"Mozilla/5.0 (Macintosh; Intel Mac OS X 10_12_6) AppleWebKit/537.36 (KHTML, like Gecko) Chrome/71.0.3578.80 Safari/537.36","referer":"http://localhost:4200/company/company-list","accept-encoding":"gzip, deflate, br","accept-language":"en-US,en;q=0.9"}] -----
[2018-12-12 16:36:01:572] - info: ----- incomming parameters Body [{"server_by":"5bd6db911db5528939d673d3"}] -----
[2018-12-12 16:36:01:572] - info: ----- request ip [::ffff:127.0.0.1] -----
[2018-12-12 16:36:01:572] - info: ----- ResponseMessage[{"api_number":0,"code":20000,"message":{"en":"Success","th":"ทำรายการเรียบร้อย"},"__v":0,"data":[{"_id":"5c0886aa354c4009a11d04c0","update":[{"by":"5bd6db911db5528939d673d3","_id":"5c0887ba354c4009a11d04c2","date":"2018-12-06T02:21:46.624Z"}],"create":{"by":"5bd6db911db5528939d673d3","date":"2018-12-06T02:17:14.788Z"},"users":[{"by":{"_id":"5bd6db911db5528939d673d3","username":"saksith","enable":true,"userinfo":{"birthday":"2018-11-15T17:00:00.000Z","msisdn":"031232132","email":"saksithgmail.com","address":{"zipcode":"","address":"rrr"},"google_id":"atchara_google","facebook_id":"d","lineid":"l","card_id":"c","image_profile":"1542256274471.jpg","lastname":"rittanasatheiyn","firstname":"Saksith"}},"_id":"5c0886aa354c4009a11d04c1","status":false}],"enable":true,"contact":{"telephone":"098213212","email":"thigps@gmail.com","website":"asad","facebook":"sdas","line":"ff","long":"-1.1868724662435852","lat":"8.2127003874804","address":""},"image":null,"description":"บ. ไทยจีพีเอส","title":"Thai GPS","__v":0},{"_id":"5c089d4f80f4c30b1063e089","update":[],"create":{"by":"5be4034f8e85da0a1df938fe","date":"2018-12-06T03:53:51.637Z"},"users":[{"by":{"_id":"5be4034f8e85da0a1df938fe","username":"eye","enable":true,"userinfo":{"birthday":"1970-01-01T07:15:02.529Z","msisdn":"0636641641","email":"atchara2571@gmail.com","address":{"zipcode":"null","address":"null"},"google_id":"","facebook_id":"","lineid":"","card_id":"23432433123","image_profile":"","lastname":"Yawirach","firstname":"Atchara"}},"_id":"5c089d4f80f4c30b1063e08a","status":false}],"enable":true,"contact":{"telephone":"0986632121","email":"companyx@gmail.com","website":"","facebook":"","line":"","long":null,"lat":null,"address":""},"image":null,"description":"","title":"Company x","__v":0}]}] ResponseTime[61] -----

[2018-12-12 16:36:04:075] - info: ----- Start onPartners -----
[2018-12-12 16:36:04:075] - info: ----- incomming parameters Headers [{"host":"127.0.0.1:8080","connection":"keep-alive","accept":"application/json, text/plain, */*","origin":"http://localhost:4200","x_access_token":"e0e4f0ff45b20e13768bc15abdfaf7f5e4ac8bf9aa2a6b2ba47943bb44b151ed","authorization":"Bearer e0e4f0ff45b20e13768bc15abdfaf7f5e4ac8bf9aa2a6b2ba47943bb44b151ed","user-agent":"Mozilla/5.0 (Macintosh; Intel Mac OS X 10_12_6) AppleWebKit/537.36 (KHTML, like Gecko) Chrome/71.0.3578.80 Safari/537.36","referer":"http://localhost:4200/partner/partner-by-company/5c0886aa354c4009a11d04c0/Thai%20GPS","accept-encoding":"gzip, deflate, br","accept-language":"en-US,en;q=0.9"}] -----
[2018-12-12 16:36:04:075] - info: ----- incomming parameters Body [{"server_by":"5bd6db911db5528939d673d3"}] -----
[2018-12-12 16:36:04:075] - info: ----- request ip [::ffff:127.0.0.1] -----
[2018-12-12 16:36:04:075] - info: ----- ResponseMessage[{"api_number":0,"code":20000,"message":{"en":"Success","th":"ทำรายการเรียบร้อย"},"__v":0,"data":[{"_id":"5c0f7b7c047a360f78482f42","company":"5c0886aa354c4009a11d04c0","update":[],"create":{"by":"5bd6db911db5528939d673d3","date":"2018-12-11T08:55:24.629Z"},"users":[{"by":"5bd6db911db5528939d673d3","_id":"5c0f7b7c047a360f78482f43"}],"enable":true,"invoice":[],"contact":{"long":null,"lat":null,"address":"","email":"","msisdn":"","name":"Partner one"},"title":"Partner 1","__v":0}]}] ResponseTime[35] -----

[2018-12-12 16:36:05:721] - info: ----- Start onQuery_Warehouses -----
[2018-12-12 16:36:05:721] - info: ----- incomming parameters Headers [{"host":"127.0.0.1:8080","connection":"keep-alive","accept":"application/json, text/plain, */*","origin":"http://localhost:4200","x_access_token":"e0e4f0ff45b20e13768bc15abdfaf7f5e4ac8bf9aa2a6b2ba47943bb44b151ed","authorization":"Bearer e0e4f0ff45b20e13768bc15abdfaf7f5e4ac8bf9aa2a6b2ba47943bb44b151ed","user-agent":"Mozilla/5.0 (Macintosh; Intel Mac OS X 10_12_6) AppleWebKit/537.36 (KHTML, like Gecko) Chrome/71.0.3578.80 Safari/537.36","referer":"http://localhost:4200/warehouse/warehouse-by-partner/5c0f7b7c047a360f78482f42/Partner%201","accept-encoding":"gzip, deflate, br","accept-language":"en-US,en;q=0.9"}] -----
[2018-12-12 16:36:05:721] - info: ----- incomming parameters Body [{"server_by":"5bd6db911db5528939d673d3"}] -----
[2018-12-12 16:36:05:721] - info: ----- request ip [::ffff:127.0.0.1] -----
[2018-12-12 16:36:05:721] - info: ----- ResponseMessage[{"api_number":0,"code":20000,"message":{"en":"Success","th":"ทำรายการเรียบร้อย"},"__v":0,"data":[{"_id":"5c0f7bf2047a360f78482f44","update":[],"create":{"by":"5bd6db911db5528939d673d3","date":"2018-12-11T08:57:22.086Z"},"enable":true,"support":[{"company":"5c0886aa354c4009a11d04c0","_id":"5c0f7bf2047a360f78482f45","charged_warehouse":{"export_value":10,"daily_freight":10,"import_value":10}}],"partners":["5c0f7b7c047a360f78482f42"],"description":"","title":"Warehouse 1","__v":0},{"_id":"5c0f8083047a360f78482f4c","update":[],"create":{"by":"5bd6db911db5528939d673d3","date":"2018-12-11T09:16:51.163Z"},"enable":true,"support":[{"company":"5c0886aa354c4009a11d04c0","_id":"5c0f8083047a360f78482f4d","charged_warehouse":{"export_value":40,"daily_freight":40,"import_value":30}}],"partners":["5c0f7b7c047a360f78482f42"],"description":"","title":"Warehouse 2","__v":0}]}] ResponseTime[39] -----

[2018-12-12 16:36:07:609] - info: ----- Start onQuery_Store_Product -----
[2018-12-12 16:36:07:609] - info: ----- incomming parameters Headers [{"host":"127.0.0.1:8080","connection":"keep-alive","accept":"application/json, text/plain, */*","origin":"http://localhost:4200","x_access_token":"e0e4f0ff45b20e13768bc15abdfaf7f5e4ac8bf9aa2a6b2ba47943bb44b151ed","authorization":"Bearer e0e4f0ff45b20e13768bc15abdfaf7f5e4ac8bf9aa2a6b2ba47943bb44b151ed","user-agent":"Mozilla/5.0 (Macintosh; Intel Mac OS X 10_12_6) AppleWebKit/537.36 (KHTML, like Gecko) Chrome/71.0.3578.80 Safari/537.36","referer":"http://localhost:4200/store-product/store-product-by-company-warehouse-partner/5c0886aa354c4009a11d04c0/5c0f7bf2047a360f78482f44/5c0f7b7c047a360f78482f42/Partner%201","accept-encoding":"gzip, deflate, br","accept-language":"en-US,en;q=0.9"}] -----
[2018-12-12 16:36:07:609] - info: ----- incomming parameters Body [{"server_by":"5bd6db911db5528939d673d3"}] -----
[2018-12-12 16:36:07:609] - info: ----- request ip [::ffff:127.0.0.1] -----
[2018-12-12 16:36:07:609] - info: ----- ResponseMessage[{"api_number":0,"code":20000,"message":{"en":"Success","th":"ทำรายการเรียบร้อย"},"__v":0,"data":[{"company":{"_id":"5c0886aa354c4009a11d04c0","image":null,"description":"บ. ไทยจีพีเอส","title":"Thai GPS"},"warehouse":{"_id":"5c0f7bf2047a360f78482f44","enable":true,"description":"","title":"Warehouse 1"},"serial_product":{"_id":"5c0f7c27047a360f78482f46","type":{"_id":"5c05e18caca7290a33d82517","enable":true,"description":"มีส่วนผสมของแอลกอฮอล์","title":"แอลกอฮอล์"},"enable":true,"image":null,"description":"","title":"เบียร์","serial_product":"1234"},"charged_warehouse":{"export_value":10,"daily_freight":10,"import_value":10},"__v":0,"total":2,"remain":0},{"company":{"_id":"5c0886aa354c4009a11d04c0","image":null,"description":"บ. ไทยจีพีเอส","title":"Thai GPS"},"warehouse":{"_id":"5c0f7bf2047a360f78482f44","enable":true,"description":"","title":"Warehouse 1"},"serial_product":{"_id":"5c0f7c6e047a360f78482f49","type":{"_id":"5bf5074050edaa20be9f5514","enable":true,"description":"Juice","title":"เครื่องดื่ม"},"enable":true,"image":null,"description":"","title":"ไมโล","serial_product":"5678"},"charged_warehouse":{"export_value":10,"daily_freight":10,"import_value":10},"__v":0,"total":1,"remain":0}]}] ResponseTime[82] -----

[2018-12-12 16:42:43:877] - info: ----- Start onPartners -----
[2018-12-12 16:42:43:877] - info: ----- incomming parameters Headers [{"host":"127.0.0.1:8080","connection":"keep-alive","accept":"application/json, text/plain, */*","origin":"http://localhost:4200","x_access_token":"e0e4f0ff45b20e13768bc15abdfaf7f5e4ac8bf9aa2a6b2ba47943bb44b151ed","authorization":"Bearer e0e4f0ff45b20e13768bc15abdfaf7f5e4ac8bf9aa2a6b2ba47943bb44b151ed","user-agent":"Mozilla/5.0 (Macintosh; Intel Mac OS X 10_12_6) AppleWebKit/537.36 (KHTML, like Gecko) Chrome/71.0.3578.80 Safari/537.36","referer":"http://localhost:4200/partner/partner-list","accept-encoding":"gzip, deflate, br","accept-language":"en-US,en;q=0.9"}] -----
[2018-12-12 16:42:43:877] - info: ----- incomming parameters Body [{"server_by":"5bd6db911db5528939d673d3"}] -----
[2018-12-12 16:42:43:877] - info: ----- request ip [::ffff:127.0.0.1] -----
[2018-12-12 16:42:43:877] - info: ----- ResponseMessage[{"api_number":0,"code":20000,"message":{"en":"Success","th":"ทำรายการเรียบร้อย"},"__v":0,"data":[{"_id":"5c0886aa354c4009a11d04c0","update":[{"by":"5bd6db911db5528939d673d3","_id":"5c0887ba354c4009a11d04c2","date":"2018-12-06T02:21:46.624Z"}],"create":{"by":"5bd6db911db5528939d673d3","date":"2018-12-06T02:17:14.788Z"},"users":[{"by":{"_id":"5bd6db911db5528939d673d3","username":"saksith","enable":true,"userinfo":{"birthday":"2018-11-15T17:00:00.000Z","msisdn":"031232132","email":"saksithgmail.com","address":{"zipcode":"","address":"rrr"},"google_id":"atchara_google","facebook_id":"d","lineid":"l","card_id":"c","image_profile":"1542256274471.jpg","lastname":"rittanasatheiyn","firstname":"Saksith"}},"_id":"5c0886aa354c4009a11d04c1","status":false}],"enable":true,"contact":{"telephone":"098213212","email":"thigps@gmail.com","website":"asad","facebook":"sdas","line":"ff","long":"-1.1868724662435852","lat":"8.2127003874804","address":""},"image":null,"description":"บ. ไทยจีพีเอส","title":"Thai GPS","__v":0}]}] ResponseTime[65] -----

[2018-12-12 16:42:43:960] - info: ----- Start onPartners -----
[2018-12-12 16:42:43:960] - info: ----- incomming parameters Headers [{"host":"127.0.0.1:8080","connection":"keep-alive","accept":"application/json, text/plain, */*","origin":"http://localhost:4200","x_access_token":"e0e4f0ff45b20e13768bc15abdfaf7f5e4ac8bf9aa2a6b2ba47943bb44b151ed","authorization":"Bearer e0e4f0ff45b20e13768bc15abdfaf7f5e4ac8bf9aa2a6b2ba47943bb44b151ed","user-agent":"Mozilla/5.0 (Macintosh; Intel Mac OS X 10_12_6) AppleWebKit/537.36 (KHTML, like Gecko) Chrome/71.0.3578.80 Safari/537.36","referer":"http://localhost:4200/partner/partner-list","accept-encoding":"gzip, deflate, br","accept-language":"en-US,en;q=0.9"}] -----
[2018-12-12 16:42:43:960] - info: ----- incomming parameters Body [{"server_by":"5bd6db911db5528939d673d3"}] -----
[2018-12-12 16:42:43:960] - info: ----- request ip [::ffff:127.0.0.1] -----
[2018-12-12 16:42:43:960] - info: ----- ResponseMessage[{"api_number":0,"code":20000,"message":{"en":"Success","th":"ทำรายการเรียบร้อย"},"__v":0,"data":[{"_id":"5c0f7b7c047a360f78482f42","company":"5c0886aa354c4009a11d04c0","update":[],"create":{"by":"5bd6db911db5528939d673d3","date":"2018-12-11T08:55:24.629Z"},"users":[{"by":"5bd6db911db5528939d673d3","_id":"5c0f7b7c047a360f78482f43"}],"enable":true,"invoice":[],"contact":{"long":null,"lat":null,"address":"","email":"","msisdn":"","name":"Partner one"},"title":"Partner 1","__v":0}]}] ResponseTime[55] -----

[2018-12-12 16:43:09:911] - info: ----- Start onQuery_Store_Product -----
[2018-12-12 16:43:09:911] - info: ----- incomming parameters Headers [{"host":"127.0.0.1:8080","connection":"keep-alive","accept":"application/json, text/plain, */*","origin":"http://localhost:4200","x_access_token":"e0e4f0ff45b20e13768bc15abdfaf7f5e4ac8bf9aa2a6b2ba47943bb44b151ed","authorization":"Bearer e0e4f0ff45b20e13768bc15abdfaf7f5e4ac8bf9aa2a6b2ba47943bb44b151ed","user-agent":"Mozilla/5.0 (Macintosh; Intel Mac OS X 10_12_6) AppleWebKit/537.36 (KHTML, like Gecko) Chrome/71.0.3578.80 Safari/537.36","referer":"http://localhost:4200/store-product/store-product-by-company-warehouse-partner/5c0886aa354c4009a11d04c0/5c0f7bf2047a360f78482f44/5c0f7b7c047a360f78482f42/Partner%201","accept-encoding":"gzip, deflate, br","accept-language":"en-US,en;q=0.9"}] -----
[2018-12-12 16:43:09:911] - info: ----- incomming parameters Body [{"server_by":"5bd6db911db5528939d673d3"}] -----
[2018-12-12 16:43:09:911] - info: ----- request ip [::ffff:127.0.0.1] -----
[2018-12-12 16:43:09:911] - info: ----- ResponseMessage[{"api_number":0,"code":20000,"message":{"en":"Success","th":"ทำรายการเรียบร้อย"},"__v":0,"data":[{"company":{"_id":"5c0886aa354c4009a11d04c0","image":null,"description":"บ. ไทยจีพีเอส","title":"Thai GPS"},"warehouse":{"_id":"5c0f7bf2047a360f78482f44","enable":true,"description":"","title":"Warehouse 1"},"serial_product":{"_id":"5c0f7c27047a360f78482f46","type":{"_id":"5c05e18caca7290a33d82517","enable":true,"description":"มีส่วนผสมของแอลกอฮอล์","title":"แอลกอฮอล์"},"enable":true,"image":null,"description":"","title":"เบียร์","serial_product":"1234"},"charged_warehouse":{"export_value":10,"daily_freight":10,"import_value":10},"__v":0,"total":2,"remain":0},{"company":{"_id":"5c0886aa354c4009a11d04c0","image":null,"description":"บ. ไทยจีพีเอส","title":"Thai GPS"},"warehouse":{"_id":"5c0f7bf2047a360f78482f44","enable":true,"description":"","title":"Warehouse 1"},"serial_product":{"_id":"5c0f7c6e047a360f78482f49","type":{"_id":"5bf5074050edaa20be9f5514","enable":true,"description":"Juice","title":"เครื่องดื่ม"},"enable":true,"image":null,"description":"","title":"ไมโล","serial_product":"5678"},"charged_warehouse":{"export_value":10,"daily_freight":10,"import_value":10},"__v":0,"total":1,"remain":0}]}] ResponseTime[84] -----

[2018-12-12 16:43:10:891] - info: ----- Start onPartners -----
[2018-12-12 16:43:10:891] - info: ----- incomming parameters Headers [{"host":"127.0.0.1:8080","connection":"keep-alive","accept":"application/json, text/plain, */*","origin":"http://localhost:4200","x_access_token":"e0e4f0ff45b20e13768bc15abdfaf7f5e4ac8bf9aa2a6b2ba47943bb44b151ed","authorization":"Bearer e0e4f0ff45b20e13768bc15abdfaf7f5e4ac8bf9aa2a6b2ba47943bb44b151ed","user-agent":"Mozilla/5.0 (Macintosh; Intel Mac OS X 10_12_6) AppleWebKit/537.36 (KHTML, like Gecko) Chrome/71.0.3578.80 Safari/537.36","referer":"http://localhost:4200/partner/partner-list","accept-encoding":"gzip, deflate, br","accept-language":"en-US,en;q=0.9"}] -----
[2018-12-12 16:43:10:891] - info: ----- incomming parameters Body [{"server_by":"5bd6db911db5528939d673d3"}] -----
[2018-12-12 16:43:10:892] - info: ----- request ip [::ffff:127.0.0.1] -----
[2018-12-12 16:43:10:892] - info: ----- ResponseMessage[{"api_number":0,"code":20000,"message":{"en":"Success","th":"ทำรายการเรียบร้อย"},"__v":0,"data":[{"_id":"5c0886aa354c4009a11d04c0","update":[{"by":"5bd6db911db5528939d673d3","_id":"5c0887ba354c4009a11d04c2","date":"2018-12-06T02:21:46.624Z"}],"create":{"by":"5bd6db911db5528939d673d3","date":"2018-12-06T02:17:14.788Z"},"users":[{"by":{"_id":"5bd6db911db5528939d673d3","username":"saksith","enable":true,"userinfo":{"birthday":"2018-11-15T17:00:00.000Z","msisdn":"031232132","email":"saksithgmail.com","address":{"zipcode":"","address":"rrr"},"google_id":"atchara_google","facebook_id":"d","lineid":"l","card_id":"c","image_profile":"1542256274471.jpg","lastname":"rittanasatheiyn","firstname":"Saksith"}},"_id":"5c0886aa354c4009a11d04c1","status":false}],"enable":true,"contact":{"telephone":"098213212","email":"thigps@gmail.com","website":"asad","facebook":"sdas","line":"ff","long":"-1.1868724662435852","lat":"8.2127003874804","address":""},"image":null,"description":"บ. ไทยจีพีเอส","title":"Thai GPS","__v":0}]}] ResponseTime[113] -----

[2018-12-12 16:43:11:045] - info: ----- Start onPartners -----
[2018-12-12 16:43:11:045] - info: ----- incomming parameters Headers [{"host":"127.0.0.1:8080","connection":"keep-alive","accept":"application/json, text/plain, */*","origin":"http://localhost:4200","x_access_token":"e0e4f0ff45b20e13768bc15abdfaf7f5e4ac8bf9aa2a6b2ba47943bb44b151ed","authorization":"Bearer e0e4f0ff45b20e13768bc15abdfaf7f5e4ac8bf9aa2a6b2ba47943bb44b151ed","user-agent":"Mozilla/5.0 (Macintosh; Intel Mac OS X 10_12_6) AppleWebKit/537.36 (KHTML, like Gecko) Chrome/71.0.3578.80 Safari/537.36","referer":"http://localhost:4200/partner/partner-list","accept-encoding":"gzip, deflate, br","accept-language":"en-US,en;q=0.9"}] -----
[2018-12-12 16:43:11:046] - info: ----- incomming parameters Body [{"server_by":"5bd6db911db5528939d673d3"}] -----
[2018-12-12 16:43:11:046] - info: ----- request ip [::ffff:127.0.0.1] -----
[2018-12-12 16:43:11:046] - info: ----- ResponseMessage[{"api_number":0,"code":20000,"message":{"en":"Success","th":"ทำรายการเรียบร้อย"},"__v":0,"data":[{"_id":"5c0f7b7c047a360f78482f42","company":"5c0886aa354c4009a11d04c0","update":[],"create":{"by":"5bd6db911db5528939d673d3","date":"2018-12-11T08:55:24.629Z"},"users":[{"by":"5bd6db911db5528939d673d3","_id":"5c0f7b7c047a360f78482f43"}],"enable":true,"invoice":[],"contact":{"long":null,"lat":null,"address":"","email":"","msisdn":"","name":"Partner one"},"title":"Partner 1","__v":0}]}] ResponseTime[97] -----

[2018-12-12 16:43:42:508] - info: ----- Start onPartners -----
[2018-12-12 16:43:42:508] - info: ----- incomming parameters Headers [{"host":"127.0.0.1:8080","connection":"keep-alive","accept":"application/json, text/plain, */*","origin":"http://localhost:4200","x_access_token":"e0e4f0ff45b20e13768bc15abdfaf7f5e4ac8bf9aa2a6b2ba47943bb44b151ed","authorization":"Bearer e0e4f0ff45b20e13768bc15abdfaf7f5e4ac8bf9aa2a6b2ba47943bb44b151ed","user-agent":"Mozilla/5.0 (Macintosh; Intel Mac OS X 10_12_6) AppleWebKit/537.36 (KHTML, like Gecko) Chrome/71.0.3578.80 Safari/537.36","referer":"http://localhost:4200/company/company-create","accept-encoding":"gzip, deflate, br","accept-language":"en-US,en;q=0.9"}] -----
[2018-12-12 16:43:42:508] - info: ----- incomming parameters Body [{"server_by":"5bd6db911db5528939d673d3"}] -----
[2018-12-12 16:43:42:508] - info: ----- request ip [::ffff:127.0.0.1] -----
[2018-12-12 16:43:42:508] - info: ----- ResponseMessage[{"api_number":0,"code":20000,"message":{"en":"Success","th":"ทำรายการเรียบร้อย"},"__v":0,"data":[{"_id":"5c0886aa354c4009a11d04c0","update":[{"by":"5bd6db911db5528939d673d3","_id":"5c0887ba354c4009a11d04c2","date":"2018-12-06T02:21:46.624Z"}],"create":{"by":"5bd6db911db5528939d673d3","date":"2018-12-06T02:17:14.788Z"},"users":[{"by":{"_id":"5bd6db911db5528939d673d3","username":"saksith","enable":true,"userinfo":{"birthday":"2018-11-15T17:00:00.000Z","msisdn":"031232132","email":"saksithgmail.com","address":{"zipcode":"","address":"rrr"},"google_id":"atchara_google","facebook_id":"d","lineid":"l","card_id":"c","image_profile":"1542256274471.jpg","lastname":"rittanasatheiyn","firstname":"Saksith"}},"_id":"5c0886aa354c4009a11d04c1","status":false}],"enable":true,"contact":{"telephone":"098213212","email":"thigps@gmail.com","website":"asad","facebook":"sdas","line":"ff","long":"-1.1868724662435852","lat":"8.2127003874804","address":""},"image":null,"description":"บ. ไทยจีพีเอส","title":"Thai GPS","__v":0}]}] ResponseTime[56] -----

[2018-12-12 16:43:44:771] - info: ----- Start onPartners -----
[2018-12-12 16:43:44:771] - info: ----- incomming parameters Headers [{"host":"127.0.0.1:8080","connection":"keep-alive","accept":"application/json, text/plain, */*","origin":"http://localhost:4200","x_access_token":"e0e4f0ff45b20e13768bc15abdfaf7f5e4ac8bf9aa2a6b2ba47943bb44b151ed","authorization":"Bearer e0e4f0ff45b20e13768bc15abdfaf7f5e4ac8bf9aa2a6b2ba47943bb44b151ed","user-agent":"Mozilla/5.0 (Macintosh; Intel Mac OS X 10_12_6) AppleWebKit/537.36 (KHTML, like Gecko) Chrome/71.0.3578.80 Safari/537.36","referer":"http://localhost:4200/company/company-list","accept-encoding":"gzip, deflate, br","accept-language":"en-US,en;q=0.9"}] -----
[2018-12-12 16:43:44:771] - info: ----- incomming parameters Body [{"server_by":"5bd6db911db5528939d673d3"}] -----
[2018-12-12 16:43:44:771] - info: ----- request ip [::ffff:127.0.0.1] -----
[2018-12-12 16:43:44:772] - info: ----- ResponseMessage[{"api_number":0,"code":20000,"message":{"en":"Success","th":"ทำรายการเรียบร้อย"},"__v":0,"data":[{"_id":"5c0886aa354c4009a11d04c0","update":[{"by":"5bd6db911db5528939d673d3","_id":"5c0887ba354c4009a11d04c2","date":"2018-12-06T02:21:46.624Z"}],"create":{"by":"5bd6db911db5528939d673d3","date":"2018-12-06T02:17:14.788Z"},"users":[{"by":{"_id":"5bd6db911db5528939d673d3","username":"saksith","enable":true,"userinfo":{"birthday":"2018-11-15T17:00:00.000Z","msisdn":"031232132","email":"saksithgmail.com","address":{"zipcode":"","address":"rrr"},"google_id":"atchara_google","facebook_id":"d","lineid":"l","card_id":"c","image_profile":"1542256274471.jpg","lastname":"rittanasatheiyn","firstname":"Saksith"}},"_id":"5c0886aa354c4009a11d04c1","status":false}],"enable":true,"contact":{"telephone":"098213212","email":"thigps@gmail.com","website":"asad","facebook":"sdas","line":"ff","long":"-1.1868724662435852","lat":"8.2127003874804","address":""},"image":null,"description":"บ. ไทยจีพีเอส","title":"Thai GPS","__v":0},{"_id":"5c089d4f80f4c30b1063e089","update":[],"create":{"by":"5be4034f8e85da0a1df938fe","date":"2018-12-06T03:53:51.637Z"},"users":[{"by":{"_id":"5be4034f8e85da0a1df938fe","username":"eye","enable":true,"userinfo":{"birthday":"1970-01-01T07:15:02.529Z","msisdn":"0636641641","email":"atchara2571@gmail.com","address":{"zipcode":"null","address":"null"},"google_id":"","facebook_id":"","lineid":"","card_id":"23432433123","image_profile":"","lastname":"Yawirach","firstname":"Atchara"}},"_id":"5c089d4f80f4c30b1063e08a","status":false}],"enable":true,"contact":{"telephone":"0986632121","email":"companyx@gmail.com","website":"","facebook":"","line":"","long":null,"lat":null,"address":""},"image":null,"description":"","title":"Company x","__v":0}]}] ResponseTime[71] -----

