[2018-12-20 16:59:19:727] - info: ----- Start onProfile_Update -----
[2018-12-20 16:59:19:727] - info: ----- incomming parameters Headers [{"host":"127.0.0.1:8080","connection":"keep-alive","accept":"application/json, text/plain, */*","origin":"http://localhost:4200","x_access_token":"5869330f4b11f17233b8fce4214eb64b13bb1840ce649e579e53515f87796bbe","authorization":"Bearer 5869330f4b11f17233b8fce4214eb64b13bb1840ce649e579e53515f87796bbe","user-agent":"Mozilla/5.0 (Macintosh; Intel Mac OS X 10_12_6) AppleWebKit/537.36 (KHTML, like Gecko) Chrome/71.0.3578.98 Safari/537.36","referer":"http://localhost:4200/","accept-encoding":"gzip, deflate, br","accept-language":"en-US,en;q=0.9"}] -----
[2018-12-20 16:59:19:727] - info: ----- incomming parameters Body [{"server_by":"5bd6db911db5528939d673d3"}] -----
[2018-12-20 16:59:19:727] - info: ----- request ip [::ffff:127.0.0.1] -----
[2018-12-20 16:59:19:727] - info: ----- ResponseMessage[{"api_number":0,"code":20000,"message":{"en":"Success","th":"ทำรายการเรียบร้อย"},"__v":0,"data":{"_id":"5bd6db911db5528939d673d3","username":"saksith","enable":true,"userinfo":{"birthday":"2018-11-15T17:00:00.000Z","msisdn":"031232132","email":"saksithgmail.com","address":{"zipcode":"","address":"rrr"},"google_id":"atchara_google","facebook_id":"d","lineid":"l","card_id":"c","image_profile":"http://127.0.0.1:8080/images/profiles/1542256274471.jpg","lastname":"rittanasatheiyn","firstname":"Saksith"},"state":1,"status":1,"token_expired":1547288042635,"x_access_token":"5869330f4b11f17233b8fce4214eb64b13bb1840ce649e579e53515f87796bbe","usertype_id":[],"__v":0}}] ResponseTime[38] -----

[2018-12-20 16:59:43:743] - info: ----- Start onPartners -----
[2018-12-20 16:59:43:743] - info: ----- incomming parameters Headers [{"host":"127.0.0.1:8080","connection":"keep-alive","accept":"application/json, text/plain, */*","origin":"http://localhost:4200","x_access_token":"5869330f4b11f17233b8fce4214eb64b13bb1840ce649e579e53515f87796bbe","authorization":"Bearer 5869330f4b11f17233b8fce4214eb64b13bb1840ce649e579e53515f87796bbe","user-agent":"Mozilla/5.0 (Macintosh; Intel Mac OS X 10_12_6) AppleWebKit/537.36 (KHTML, like Gecko) Chrome/71.0.3578.98 Safari/537.36","referer":"http://localhost:4200/company/company-list","accept-encoding":"gzip, deflate, br","accept-language":"en-US,en;q=0.9"}] -----
[2018-12-20 16:59:43:743] - info: ----- incomming parameters Body [{"server_by":"5bd6db911db5528939d673d3"}] -----
[2018-12-20 16:59:43:743] - info: ----- request ip [::ffff:127.0.0.1] -----
[2018-12-20 16:59:43:743] - info: ----- ResponseMessage[{"api_number":0,"code":20000,"message":{"en":"Success","th":"ทำรายการเรียบร้อย"},"__v":0,"data":[{"_id":"5c0886aa354c4009a11d04c0","update":[{"by":"5bd6db911db5528939d673d3","_id":"5c0887ba354c4009a11d04c2","date":"2018-12-06T02:21:46.624Z"}],"create":{"by":"5bd6db911db5528939d673d3","date":"2018-12-06T02:17:14.788Z"},"users":[{"by":{"_id":"5bd6db911db5528939d673d3","username":"saksith","enable":true,"userinfo":{"birthday":"2018-11-15T17:00:00.000Z","msisdn":"031232132","email":"saksithgmail.com","address":{"zipcode":"","address":"rrr"},"google_id":"atchara_google","facebook_id":"d","lineid":"l","card_id":"c","image_profile":"1542256274471.jpg","lastname":"rittanasatheiyn","firstname":"Saksith"}},"_id":"5c0886aa354c4009a11d04c1","status":false}],"enable":true,"contact":{"telephone":"098213212","email":"thigps@gmail.com","website":"asad","facebook":"sdas","line":"ff","long":"-1.1868724662435852","lat":"8.2127003874804","address":""},"image":null,"description":"บ. ไทยจีพีเอส","title":"Thai GPS","__v":0},{"_id":"5c089d4f80f4c30b1063e089","update":[],"create":{"by":"5be4034f8e85da0a1df938fe","date":"2018-12-06T03:53:51.637Z"},"users":[{"by":{"_id":"5be4034f8e85da0a1df938fe","username":"eye","enable":true,"userinfo":{"birthday":"1970-01-01T07:15:02.529Z","msisdn":"0636641641","email":"atchara2571@gmail.com","address":{"zipcode":"null","address":"null"},"google_id":"","facebook_id":"","lineid":"","card_id":"23432433123","image_profile":"","lastname":"Yawirach","firstname":"Atchara"}},"_id":"5c089d4f80f4c30b1063e08a","status":false}],"enable":true,"contact":{"telephone":"0986632121","email":"companyx@gmail.com","website":"","facebook":"","line":"","long":null,"lat":null,"address":""},"image":null,"description":"","title":"Company x","__v":0}]}] ResponseTime[59] -----

