[2019-01-08 15:16:25:048] - info: ----- Start onPartners -----
[2019-01-08 15:16:25:048] - info: ----- incomming parameters Headers [{"host":"127.0.0.1:8080","connection":"keep-alive","accept":"application/json, text/plain, */*","origin":"http://localhost:4200","x_access_token":"9a62cc38246375667e1bb47633df0e84e735d57c23eb11db092772a46b5f19ca","authorization":"Bearer 9a62cc38246375667e1bb47633df0e84e735d57c23eb11db092772a46b5f19ca","user-agent":"Mozilla/5.0 (Macintosh; Intel Mac OS X 10_12_6) AppleWebKit/537.36 (KHTML, like Gecko) Chrome/71.0.3578.98 Safari/537.36","referer":"http://localhost:4200/product/product-create","accept-encoding":"gzip, deflate, br","accept-language":"en-US,en;q=0.9"}] -----
[2019-01-08 15:16:25:048] - info: ----- incomming parameters Body [{"server_by":"5be4034f8e85da0a1df938fe"}] -----
[2019-01-08 15:16:25:048] - info: ----- request ip [::ffff:127.0.0.1] -----
[2019-01-08 15:16:25:048] - info: ----- ResponseMessage[{"api_number":0,"code":20000,"message":{"en":"Success","th":"ทำรายการเรียบร้อย"},"__v":0,"data":[{"_id":"5c2f1cc975eefc196de51f24","company":"5c2f1cae75eefc196de51f22","update":[],"create":{"by":"5be4034f8e85da0a1df938fe","date":"2019-01-04T08:43:53.644Z"},"users":[{"by":"5be4034f8e85da0a1df938fe","_id":"5c2f1cc975eefc196de51f25"}],"enable":true,"invoice":[],"contact":{"long":null,"lat":null,"address":"","email":"","msisdn":"","name":"P1"},"title":"Partner 1","__v":0}]}] ResponseTime[109] -----

[2019-01-08 15:16:25:054] - info: ----- Start onProfile_Update -----
[2019-01-08 15:16:25:054] - info: ----- incomming parameters Headers [{"host":"127.0.0.1:8080","connection":"keep-alive","accept":"application/json, text/plain, */*","origin":"http://localhost:4200","x_access_token":"9a62cc38246375667e1bb47633df0e84e735d57c23eb11db092772a46b5f19ca","authorization":"Bearer 9a62cc38246375667e1bb47633df0e84e735d57c23eb11db092772a46b5f19ca","user-agent":"Mozilla/5.0 (Macintosh; Intel Mac OS X 10_12_6) AppleWebKit/537.36 (KHTML, like Gecko) Chrome/71.0.3578.98 Safari/537.36","referer":"http://localhost:4200/product/product-create","accept-encoding":"gzip, deflate, br","accept-language":"en-US,en;q=0.9"}] -----
[2019-01-08 15:16:25:054] - info: ----- incomming parameters Body [{"server_by":"5be4034f8e85da0a1df938fe"}] -----
[2019-01-08 15:16:25:054] - info: ----- request ip [::ffff:127.0.0.1] -----
[2019-01-08 15:16:25:054] - info: ----- ResponseMessage[{"api_number":0,"code":20000,"message":{"en":"Success","th":"ทำรายการเรียบร้อย"},"__v":0,"data":{"_id":"5be4034f8e85da0a1df938fe","username":"eye","enable":true,"userinfo":{"birthday":"1970-01-01T07:15:02.529Z","msisdn":"0636641641","email":"atchara2571@gmail.com","address":{"zipcode":"6666213213","address":"null"},"google_id":"","facebook_id":"ddddsaSsa","lineid":"dsadsaddddd","card_id":"23432433123","image_profile":"http://127.0.0.1:8080/images/profiles/1546835077361.jpg","lastname":"Yawirach","firstname":"Atchara"},"state":1,"status":1,"token_expired":1549504518430,"x_access_token":"9a62cc38246375667e1bb47633df0e84e735d57c23eb11db092772a46b5f19ca","usertype_id":[],"__v":0}}] ResponseTime[118] -----

[2019-01-08 15:16:25:067] - info: ----- Start onPartners -----
[2019-01-08 15:16:25:067] - info: ----- incomming parameters Headers [{"host":"127.0.0.1:8080","connection":"keep-alive","accept":"application/json, text/plain, */*","origin":"http://localhost:4200","x_access_token":"9a62cc38246375667e1bb47633df0e84e735d57c23eb11db092772a46b5f19ca","authorization":"Bearer 9a62cc38246375667e1bb47633df0e84e735d57c23eb11db092772a46b5f19ca","user-agent":"Mozilla/5.0 (Macintosh; Intel Mac OS X 10_12_6) AppleWebKit/537.36 (KHTML, like Gecko) Chrome/71.0.3578.98 Safari/537.36","referer":"http://localhost:4200/product/product-create","accept-encoding":"gzip, deflate, br","accept-language":"en-US,en;q=0.9"}] -----
[2019-01-08 15:16:25:067] - info: ----- incomming parameters Body [{"server_by":"5be4034f8e85da0a1df938fe"}] -----
[2019-01-08 15:16:25:067] - info: ----- request ip [::ffff:127.0.0.1] -----
[2019-01-08 15:16:25:067] - info: ----- ResponseMessage[{"api_number":0,"code":20000,"message":{"en":"Success","th":"ทำรายการเรียบร้อย"},"__v":0,"data":[{"_id":"5c2f1cae75eefc196de51f22","update":[],"create":{"by":"5be4034f8e85da0a1df938fe","date":"2019-01-04T08:43:26.129Z"},"users":[{"by":{"_id":"5be4034f8e85da0a1df938fe","username":"eye","enable":true,"userinfo":{"birthday":"1970-01-01T07:15:02.529Z","msisdn":"0636641641","email":"atchara2571@gmail.com","address":{"zipcode":"6666213213","address":"null"},"google_id":"","facebook_id":"ddddsaSsa","lineid":"dsadsaddddd","card_id":"23432433123","image_profile":"1546835077361.jpg","lastname":"Yawirach","firstname":"Atchara"}},"_id":"5c2f1cae75eefc196de51f23","status":false}],"enable":true,"contact":{"telephone":"09877766262","email":"company1@gmail.com","website":"","facebook":"","line":"","long":null,"lat":null,"address":"ddd"},"image":null,"description":"c1","title":"Company 1","__v":0}]}] ResponseTime[132] -----

[2019-01-08 15:16:25:070] - info: ----- Start onQuery_Product_Types -----
[2019-01-08 15:16:25:070] - info: ----- incomming parameters Headers [{"host":"127.0.0.1:8080","connection":"keep-alive","accept":"application/json, text/plain, */*","origin":"http://localhost:4200","x_access_token":"9a62cc38246375667e1bb47633df0e84e735d57c23eb11db092772a46b5f19ca","authorization":"Bearer 9a62cc38246375667e1bb47633df0e84e735d57c23eb11db092772a46b5f19ca","user-agent":"Mozilla/5.0 (Macintosh; Intel Mac OS X 10_12_6) AppleWebKit/537.36 (KHTML, like Gecko) Chrome/71.0.3578.98 Safari/537.36","referer":"http://localhost:4200/product/product-create","accept-encoding":"gzip, deflate, br","accept-language":"en-US,en;q=0.9"}] -----
[2019-01-08 15:16:25:070] - info: ----- incomming parameters Body [{"server_by":"5be4034f8e85da0a1df938fe"}] -----
[2019-01-08 15:16:25:070] - info: ----- request ip [::ffff:127.0.0.1] -----
[2019-01-08 15:16:25:070] - info: ----- ResponseMessage[{"api_number":0,"code":20000,"message":{"en":"Success","th":"ทำรายการเรียบร้อย"},"__v":0,"data":[{"_id":"5c2f1cf775eefc196de51f28","company":"5c2f1cae75eefc196de51f22","update":[],"create":{"by":"5be4034f8e85da0a1df938fe","date":"2019-01-04T08:44:39.157Z"},"enable":true,"description":"t1","title":"Type1","__v":0}]}] ResponseTime[42] -----

[2019-01-08 15:16:48:312] - info: ----- Start onPartners -----
[2019-01-08 15:16:48:312] - info: ----- incomming parameters Headers [{"host":"127.0.0.1:8080","connection":"keep-alive","accept":"application/json, text/plain, */*","origin":"http://localhost:4200","x_access_token":"9a62cc38246375667e1bb47633df0e84e735d57c23eb11db092772a46b5f19ca","authorization":"Bearer 9a62cc38246375667e1bb47633df0e84e735d57c23eb11db092772a46b5f19ca","user-agent":"Mozilla/5.0 (Macintosh; Intel Mac OS X 10_12_6) AppleWebKit/537.36 (KHTML, like Gecko) Chrome/71.0.3578.98 Safari/537.36","referer":"http://localhost:4200/product/product-create","accept-encoding":"gzip, deflate, br","accept-language":"en-US,en;q=0.9"}] -----
[2019-01-08 15:16:48:312] - info: ----- incomming parameters Body [{"server_by":"5be4034f8e85da0a1df938fe"}] -----
[2019-01-08 15:16:48:312] - info: ----- request ip [::ffff:127.0.0.1] -----
[2019-01-08 15:16:48:312] - info: ----- ResponseMessage[{"api_number":0,"code":20000,"message":{"en":"Success","th":"ทำรายการเรียบร้อย"},"__v":0,"data":[{"_id":"5c2f1cc975eefc196de51f24","company":"5c2f1cae75eefc196de51f22","update":[],"create":{"by":"5be4034f8e85da0a1df938fe","date":"2019-01-04T08:43:53.644Z"},"users":[{"by":"5be4034f8e85da0a1df938fe","_id":"5c2f1cc975eefc196de51f25"}],"enable":true,"invoice":[],"contact":{"long":null,"lat":null,"address":"","email":"","msisdn":"","name":"P1"},"title":"Partner 1","__v":0}]}] ResponseTime[48] -----

[2019-01-08 15:17:00:206] - info: ----- Start onCreate_Product_Serial -----
[2019-01-08 15:17:00:206] - info: ----- incomming parameters Headers [{"host":"127.0.0.1:8080","connection":"keep-alive","content-length":"61502","accept":"application/json, text/plain, */*","origin":"http://localhost:4200","x_access_token":"9a62cc38246375667e1bb47633df0e84e735d57c23eb11db092772a46b5f19ca","authorization":"Bearer 9a62cc38246375667e1bb47633df0e84e735d57c23eb11db092772a46b5f19ca","user-agent":"Mozilla/5.0 (Macintosh; Intel Mac OS X 10_12_6) AppleWebKit/537.36 (KHTML, like Gecko) Chrome/71.0.3578.98 Safari/537.36","content-type":"multipart/form-data; boundary=----WebKitFormBoundary0hTRI4xkHwtTKe5j","referer":"http://localhost:4200/product/product-create","accept-encoding":"gzip, deflate, br","accept-language":"en-US,en;q=0.9"}] -----
[2019-01-08 15:17:00:206] - info: ----- incomming parameters Body [{"company":"5c2f1cae75eefc196de51f22","title":"sadas","description":"sdadsa","serial_product":"21321321","partners":"5c2f1cc975eefc196de51f24","import_value":"222","daily_freight":"22","export_value":"22","enable":"true","type":"5c2f1cf775eefc196de51f28","image":"1546935420144.jpg","server_by":"5be4034f8e85da0a1df938fe"}] -----
[2019-01-08 15:17:00:206] - info: ----- request ip [::ffff:127.0.0.1] -----
[2019-01-08 15:17:00:207] - info: ----- ResponseMessage[{"api_number":0,"code":20000,"message":{"en":"Success","th":"ทำรายการเรียบร้อย"},"__v":0,"data":{"__v":0,"company":"5c2f1cae75eefc196de51f22","type":"5c2f1cf775eefc196de51f28","_id":"5c345c7ce0e88a13372d74f9","update":[],"create":{"by":"5be4034f8e85da0a1df938fe","date":"2019-01-08T08:17:00.166Z"},"enable":true,"image":"1546935420144.jpg","description":"sdadsa","title":"sadas","serial_product":"21321321","dimension":{"description":0,"height":0,"long":0,"width":0},"support":[]}}] ResponseTime[40] -----

[2019-01-08 15:17:00:373] - info: ----- Start onQuery_Product_Serials -----
[2019-01-08 15:17:00:373] - info: ----- incomming parameters Headers [{"host":"127.0.0.1:8080","connection":"keep-alive","accept":"application/json, text/plain, */*","origin":"http://localhost:4200","x_access_token":"9a62cc38246375667e1bb47633df0e84e735d57c23eb11db092772a46b5f19ca","authorization":"Bearer 9a62cc38246375667e1bb47633df0e84e735d57c23eb11db092772a46b5f19ca","user-agent":"Mozilla/5.0 (Macintosh; Intel Mac OS X 10_12_6) AppleWebKit/537.36 (KHTML, like Gecko) Chrome/71.0.3578.98 Safari/537.36","referer":"http://localhost:4200/product/product-list","accept-encoding":"gzip, deflate, br","accept-language":"en-US,en;q=0.9"}] -----
[2019-01-08 15:17:00:373] - info: ----- incomming parameters Body [{"server_by":"5be4034f8e85da0a1df938fe"}] -----
[2019-01-08 15:17:00:373] - info: ----- request ip [::ffff:127.0.0.1] -----
[2019-01-08 15:17:00:373] - info: ----- ResponseMessage[{"api_number":0,"code":20000,"message":{"en":"Success","th":"ทำรายการเรียบร้อย"},"__v":0,"data":[{"_id":"5c2f1d2675eefc196de51f29","company":"5c2f1cae75eefc196de51f22","update":[],"create":{"by":"5be4034f8e85da0a1df938fe","date":"2019-01-04T08:45:26.473Z"},"enable":true,"image":null,"description":"","title":"P1","serial_product":"12345","dimension":{"description":0,"height":0,"long":0,"width":0},"support":[{"partners":{"_id":"5c2f1cc975eefc196de51f24","enable":true,"invoice":[],"contact":{"long":null,"lat":null,"address":"","email":"","msisdn":"","name":"P1"},"title":"Partner 1"},"_id":"5c2f1d2675eefc196de51f2a","charged_product":{"transportation":0,"export_value":20,"daily_freight":20,"import_value":20}}],"__v":0},{"_id":"5c345c7ce0e88a13372d74f9","company":"5c2f1cae75eefc196de51f22","type":{"_id":"5c2f1cf775eefc196de51f28","enable":true,"description":"t1","title":"Type1"},"update":[],"create":{"by":"5be4034f8e85da0a1df938fe","date":"2019-01-08T08:17:00.166Z"},"enable":true,"image":"1546935420144.jpg","description":"sdadsa","title":"sadas","serial_product":"21321321","dimension":{"description":0,"height":0,"long":0,"width":0},"support":[],"__v":0},{"_id":"5c32bfba1fc6140277c10319","company":"5c2f1cae75eefc196de51f22","type":{"_id":"5c2f1cf775eefc196de51f28","enable":true,"description":"t1","title":"Type1"},"update":[],"create":{"by":"5be4034f8e85da0a1df938fe","date":"2019-01-07T02:55:54.701Z"},"enable":true,"image":null,"description":"","title":"testproduct","serial_product":"2222","dimension":{"description":0,"height":0,"long":0,"width":0},"support":[{"partners":{"_id":"5c2f1cc975eefc196de51f24","enable":true,"invoice":[],"contact":{"long":null,"lat":null,"address":"","email":"","msisdn":"","name":"P1"},"title":"Partner 1"},"_id":"5c32bfba1fc6140277c1031a","charged_product":{"transportation":0,"export_value":88,"daily_freight":79,"import_value":80}}],"__v":0},{"_id":"5c345ba8e0e88a13372d74f8","company":"5c2f1cae75eefc196de51f22","type":{"_id":"5c2f1cf775eefc196de51f28","enable":true,"description":"t1","title":"Type1"},"update":[],"create":{"by":"5be4034f8e85da0a1df938fe","date":"2019-01-08T08:13:28.334Z"},"enable":true,"image":"1546935208195.jpg","description":"dsa","title":"sdsa","serial_product":"321321","dimension":{"description":0,"height":0,"long":0,"width":0},"support":[],"__v":0}]}] ResponseTime[79] -----

